(kicad_sch (version 20230121) (generator eeschema)

  (uuid 7992cc5d-fe44-4886-83ad-a2a6d9555b04)

  (paper "A4")

  (lib_symbols
    (symbol "Connector:HDMI_D_1.4" (in_bom yes) (on_board yes)
      (property "Reference" "J" (at -6.35 26.67 0)
        (effects (font (size 1.27 1.27)))
      )
      (property "Value" "HDMI_D_1.4" (at 10.16 26.67 0)
        (effects (font (size 1.27 1.27)))
      )
      (property "Footprint" "" (at 0.635 0 0)
        (effects (font (size 1.27 1.27)) hide)
      )
      (property "Datasheet" "http://pinoutguide.com/PortableDevices/micro_hdmi_type_d_pinout.shtml" (at 0.635 0 0)
        (effects (font (size 1.27 1.27)) hide)
      )
      (property "ki_keywords" "hdmi conn" (at 0 0 0)
        (effects (font (size 1.27 1.27)) hide)
      )
      (property "ki_description" "HDMI 1.4+ type D connector" (at 0 0 0)
        (effects (font (size 1.27 1.27)) hide)
      )
      (property "ki_fp_filters" "HDMI*D*" (at 0 0 0)
        (effects (font (size 1.27 1.27)) hide)
      )
      (symbol "HDMI_D_1.4_0_0"
        (polyline
          (pts
            (xy 8.128 16.51)
            (xy 8.128 18.034)
          )
          (stroke (width 0.635) (type default))
          (fill (type none))
        )
        (polyline
          (pts
            (xy 0 16.51)
            (xy 0 18.034)
            (xy 0 17.272)
            (xy 1.905 17.272)
            (xy 1.905 18.034)
            (xy 1.905 16.51)
          )
          (stroke (width 0.635) (type default))
          (fill (type none))
        )
        (polyline
          (pts
            (xy 2.667 18.034)
            (xy 4.318 18.034)
            (xy 4.572 17.78)
            (xy 4.572 16.764)
            (xy 4.318 16.51)
            (xy 2.667 16.51)
            (xy 2.667 17.272)
          )
          (stroke (width 0.635) (type default))
          (fill (type none))
        )
      )
      (symbol "HDMI_D_1.4_0_1"
        (rectangle (start -7.62 25.4) (end 10.16 -25.4)
          (stroke (width 0.254) (type default))
          (fill (type background))
        )
        (polyline
          (pts
            (xy 0 7.62)
            (xy 3.81 7.62)
            (xy 5.715 5.715)
            (xy 5.715 -5.715)
            (xy 3.81 -7.62)
            (xy 0 -7.62)
            (xy 0 7.62)
          )
          (stroke (width 0.635) (type default))
          (fill (type none))
        )
        (polyline
          (pts
            (xy 1.905 6.35)
            (xy 3.175 6.35)
            (xy 3.81 5.715)
            (xy 3.81 -5.715)
            (xy 3.175 -6.35)
            (xy 1.905 -6.35)
            (xy 1.905 5.715)
          )
          (stroke (width 0.254) (type default))
          (fill (type outline))
        )
        (polyline
          (pts
            (xy 5.334 16.51)
            (xy 5.334 18.034)
            (xy 6.35 18.034)
            (xy 6.35 16.51)
            (xy 6.35 18.034)
            (xy 7.112 18.034)
            (xy 7.366 17.78)
            (xy 7.366 16.51)
          )
          (stroke (width 0.635) (type default))
          (fill (type none))
        )
      )
      (symbol "HDMI_D_1.4_1_1"
        (pin passive line (at -10.16 -17.78 0) (length 2.54)
          (name "HPD/HEAC-" (effects (font (size 1.27 1.27))))
          (number "1" (effects (font (size 1.27 1.27))))
        )
        (pin power_in line (at 0 -27.94 90) (length 2.54)
          (name "D0S" (effects (font (size 1.27 1.27))))
          (number "10" (effects (font (size 1.27 1.27))))
        )
        (pin passive line (at -10.16 7.62 0) (length 2.54)
          (name "D0-" (effects (font (size 1.27 1.27))))
          (number "11" (effects (font (size 1.27 1.27))))
        )
        (pin passive line (at -10.16 5.08 0) (length 2.54)
          (name "CK+" (effects (font (size 1.27 1.27))))
          (number "12" (effects (font (size 1.27 1.27))))
        )
        (pin power_in line (at 2.54 -27.94 90) (length 2.54)
          (name "CKS" (effects (font (size 1.27 1.27))))
          (number "13" (effects (font (size 1.27 1.27))))
        )
        (pin passive line (at -10.16 2.54 0) (length 2.54)
          (name "CK-" (effects (font (size 1.27 1.27))))
          (number "14" (effects (font (size 1.27 1.27))))
        )
        (pin bidirectional line (at -10.16 -2.54 0) (length 2.54)
          (name "CEC" (effects (font (size 1.27 1.27))))
          (number "15" (effects (font (size 1.27 1.27))))
        )
        (pin power_in line (at 5.08 -27.94 90) (length 2.54)
          (name "GND" (effects (font (size 1.27 1.27))))
          (number "16" (effects (font (size 1.27 1.27))))
        )
        (pin passive line (at -10.16 -7.62 0) (length 2.54)
          (name "SCL" (effects (font (size 1.27 1.27))))
          (number "17" (effects (font (size 1.27 1.27))))
        )
        (pin bidirectional line (at -10.16 -10.16 0) (length 2.54)
          (name "SDA" (effects (font (size 1.27 1.27))))
          (number "18" (effects (font (size 1.27 1.27))))
        )
        (pin power_in line (at 0 27.94 270) (length 2.54)
          (name "+5V" (effects (font (size 1.27 1.27))))
          (number "19" (effects (font (size 1.27 1.27))))
        )
        (pin passive line (at -10.16 -15.24 0) (length 2.54)
          (name "UTILITY/HEAC+" (effects (font (size 1.27 1.27))))
          (number "2" (effects (font (size 1.27 1.27))))
        )
        (pin passive line (at -10.16 20.32 0) (length 2.54)
          (name "D2+" (effects (font (size 1.27 1.27))))
          (number "3" (effects (font (size 1.27 1.27))))
        )
        (pin power_in line (at -5.08 -27.94 90) (length 2.54)
          (name "D2S" (effects (font (size 1.27 1.27))))
          (number "4" (effects (font (size 1.27 1.27))))
        )
        (pin passive line (at -10.16 17.78 0) (length 2.54)
          (name "D2-" (effects (font (size 1.27 1.27))))
          (number "5" (effects (font (size 1.27 1.27))))
        )
        (pin passive line (at -10.16 15.24 0) (length 2.54)
          (name "D1+" (effects (font (size 1.27 1.27))))
          (number "6" (effects (font (size 1.27 1.27))))
        )
        (pin power_in line (at -2.54 -27.94 90) (length 2.54)
          (name "D1S" (effects (font (size 1.27 1.27))))
          (number "7" (effects (font (size 1.27 1.27))))
        )
        (pin passive line (at -10.16 12.7 0) (length 2.54)
          (name "D1-" (effects (font (size 1.27 1.27))))
          (number "8" (effects (font (size 1.27 1.27))))
        )
        (pin passive line (at -10.16 10.16 0) (length 2.54)
          (name "D0+" (effects (font (size 1.27 1.27))))
          (number "9" (effects (font (size 1.27 1.27))))
        )
        (pin passive line (at 7.62 -27.94 90) (length 2.54)
          (name "SH" (effects (font (size 1.27 1.27))))
          (number "SH" (effects (font (size 1.27 1.27))))
        )
      )
    )
  )


  (symbol (lib_id "Connector:HDMI_D_1.4") (at 207.645 83.82 0) (unit 1)
    (in_bom yes) (on_board yes) (dnp no) (fields_autoplaced)
    (uuid 7dccd666-5837-4dec-b951-6d0d1c5ec86c)
    (property "Reference" "J1" (at 219.71 83.185 0)
      (effects (font (size 1.27 1.27)) (justify left))
    )
    (property "Value" "HDMI_D_1.4" (at 219.71 85.725 0)
      (effects (font (size 1.27 1.27)) (justify left))
    )
    (property "Footprint" "" (at 208.28 83.82 0)
      (effects (font (size 1.27 1.27)) hide)
    )
    (property "Datasheet" "http://pinoutguide.com/PortableDevices/micro_hdmi_type_d_pinout.shtml" (at 208.28 83.82 0)
      (effects (font (size 1.27 1.27)) hide)
    )
    (pin "1" (uuid 1cf7f949-d5ca-4bcd-bc6a-c3228abaa343))
    (pin "10" (uuid 6719d806-7ba1-4054-9f91-23a129341a9a))
    (pin "11" (uuid 4b6bfec8-f69b-4e15-bcc7-79c7e61051a5))
    (pin "12" (uuid 03537119-5057-4822-a18b-5dfc3076aa11))
    (pin "13" (uuid f4a7bd59-49ae-4a17-89c3-f105a83af4eb))
    (pin "14" (uuid 096442d4-d3f5-42f1-9de4-e9b0a58163aa))
    (pin "15" (uuid 45fb363f-ed40-406f-b498-0a3f1c33f3d0))
    (pin "16" (uuid 1b30e2ac-3447-483b-95dc-7374fe97e386))
    (pin "17" (uuid ac32aa7f-b617-4333-9de7-273e82d431ca))
    (pin "18" (uuid 0dc56427-3223-402f-b434-502a162db6e5))
    (pin "19" (uuid 085e7bb1-9810-49b4-bd02-2330cf10855f))
    (pin "2" (uuid 26fc0e9b-8545-4f1f-bf0e-2a377b68fea8))
    (pin "3" (uuid 9ed0e1b5-3a27-418b-9cdc-4507a14b2dc0))
    (pin "4" (uuid 0757da95-a68d-40d1-8e8a-d227f2c5bcbe))
    (pin "5" (uuid 7dce0abc-445b-4d8b-8987-637623735e1d))
    (pin "6" (uuid b0406fe3-706a-487a-89fa-e1af7ed8574c))
    (pin "7" (uuid d7ab0111-d704-4e24-9a27-a293bf99fa99))
    (pin "8" (uuid d9259541-2527-4eea-82e1-b20b6320ffa7))
    (pin "9" (uuid 55a656a7-e77e-4f1b-ae9a-8d55a44ab4d2))
    (pin "SH" (uuid 2a7739d4-37bd-409c-ac9a-49675dc0aac4))
    (instances
      (project "HDMI Transfer Board"
        (path "/7992cc5d-fe44-4886-83ad-a2a6d9555b04"
          (reference "J1") (unit 1)
        )
      )
    )
  )

  (sheet_instances
    (path "/" (page "1"))
  )
)
