(kicad_sch (version 20230121) (generator eeschema)

  (uuid e63e39d7-6ac0-4ffd-8aa3-1841a4541b55)

  (paper "A4")

  (title_block
    (title "Engineer Hat EV2")
    (date "2023-09-04")
    (rev "EV2")
    (company "Devon Merner <dmerner>")
  )

  (lib_symbols
  )


  (wire (pts (xy 161.29 101.6) (xy 170.18 101.6))
    (stroke (width 0) (type default))
    (uuid 079459fa-1af7-4726-8f75-1554f245819b)
  )
  (wire (pts (xy 161.29 87.63) (xy 170.18 87.63))
    (stroke (width 0) (type default))
    (uuid 11449cac-57ca-47be-88bd-21b586926271)
  )
  (wire (pts (xy 161.29 106.68) (xy 170.18 106.68))
    (stroke (width 0) (type default))
    (uuid 3f4c8dd2-5011-47b1-9423-0298fb8b3e98)
  )
  (wire (pts (xy 161.29 99.06) (xy 170.18 99.06))
    (stroke (width 0) (type default))
    (uuid 4877a8f4-861a-4489-8ca4-536ea16c0ee6)
  )
  (wire (pts (xy 161.29 92.71) (xy 170.18 92.71))
    (stroke (width 0) (type default))
    (uuid 4f7c7417-bf8f-43db-8383-c0de344e8818)
  )
  (wire (pts (xy 125.73 99.06) (xy 133.985 99.06))
    (stroke (width 0) (type default))
    (uuid 50073e30-a628-45a5-b78c-daa5292399fb)
  )
  (wire (pts (xy 125.73 87.63) (xy 133.985 87.63))
    (stroke (width 0) (type default))
    (uuid 5bb6ea97-13dc-4647-873b-04db9a7f8bd6)
  )
  (wire (pts (xy 125.73 95.25) (xy 133.985 95.25))
    (stroke (width 0) (type default))
    (uuid 87a37524-383c-4330-af90-18834752de95)
  )
  (wire (pts (xy 125.73 92.71) (xy 133.985 92.71))
    (stroke (width 0) (type default))
    (uuid 881d0615-e1ee-4728-9330-734ff5126a89)
  )
  (wire (pts (xy 125.73 104.14) (xy 133.985 104.14))
    (stroke (width 0) (type default))
    (uuid 8c449780-3cda-4686-94ed-704133f920e5)
  )
  (wire (pts (xy 125.73 106.68) (xy 133.985 106.68))
    (stroke (width 0) (type default))
    (uuid 9a051d16-cb7f-41b0-b54b-518f9d746caf)
  )
  (wire (pts (xy 125.73 101.6) (xy 133.985 101.6))
    (stroke (width 0) (type default))
    (uuid a53fe6fb-d16d-4975-afb2-c6cd0377c369)
  )
  (wire (pts (xy 161.29 90.17) (xy 170.18 90.17))
    (stroke (width 0) (type default))
    (uuid c7bf60e0-9e4a-4250-96fd-19308e07ddd6)
  )
  (wire (pts (xy 161.29 104.14) (xy 170.18 104.14))
    (stroke (width 0) (type default))
    (uuid ca8b716a-5f52-485a-92e4-f5794e2c0f20)
  )
  (wire (pts (xy 125.73 90.17) (xy 133.985 90.17))
    (stroke (width 0) (type default))
    (uuid e389bc6c-676e-497f-a489-2d8e20e300de)
  )
  (wire (pts (xy 161.29 95.25) (xy 170.18 95.25))
    (stroke (width 0) (type default))
    (uuid f6b20d85-7afd-4b22-a1e3-e7dd39deb785)
  )

  (sheet (at 133.985 85.725) (size 27.305 22.86) (fields_autoplaced)
    (stroke (width 0.1524) (type solid))
    (fill (color 0 0 0 0.0000))
    (uuid 0b823dad-643a-44a0-a524-f43dbb382bf3)
    (property "Sheetname" "Isolation" (at 133.985 85.0134 0)
      (effects (font (size 1.27 1.27)) (justify left bottom))
    )
    (property "Sheetfile" "Isolation.kicad_sch" (at 133.985 109.1696 0)
      (effects (font (size 1.27 1.27)) (justify left top))
    )
    (pin "1RS232_TXD" output (at 133.985 90.17 180)
      (effects (font (size 1.27 1.27)) (justify left))
      (uuid 638b36ab-8bdc-4082-84b7-028ef0e9aded)
    )
    (pin "1RS232_CTS" input (at 133.985 92.71 180)
      (effects (font (size 1.27 1.27)) (justify left))
      (uuid e2b4f52e-2c80-42d8-9ae3-8330c470f6a8)
    )
    (pin "1RS232_RXD" input (at 133.985 95.25 180)
      (effects (font (size 1.27 1.27)) (justify left))
      (uuid 1ef5fc2c-660f-418d-8bae-33c6e09e8edb)
    )
    (pin "1RS232_RTS" output (at 133.985 87.63 180)
      (effects (font (size 1.27 1.27)) (justify left))
      (uuid 55a98211-6363-4a0a-9fdb-6ff2bbb0aade)
    )
    (pin "1TTL_RTS" input (at 161.29 87.63 0)
      (effects (font (size 1.27 1.27)) (justify right))
      (uuid e909a008-acc1-4ab9-b6fd-5aad6b213385)
    )
    (pin "1TTL_TXD" input (at 161.29 90.17 0)
      (effects (font (size 1.27 1.27)) (justify right))
      (uuid 0890c5b1-710c-4525-b120-e9c5d436a019)
    )
    (pin "1TTL_CTS" output (at 161.29 92.71 0)
      (effects (font (size 1.27 1.27)) (justify right))
      (uuid d35fbb12-85f4-449e-ae1d-437788a522bc)
    )
    (pin "1TTL_RXD" output (at 161.29 95.25 0)
      (effects (font (size 1.27 1.27)) (justify right))
      (uuid dfb3fbac-5b1f-497c-ad8b-ffdf4c9731ec)
    )
    (pin "2TTL_RTS" input (at 161.29 99.06 0)
      (effects (font (size 1.27 1.27)) (justify right))
      (uuid ca092677-97f1-4c79-ba50-74c7230474f1)
    )
    (pin "2RS232_TXD" output (at 133.985 101.6 180)
      (effects (font (size 1.27 1.27)) (justify left))
      (uuid 28db2d31-79bb-4e90-94d7-4bc1504e13d5)
    )
    (pin "2RS232_RTS" output (at 133.985 99.06 180)
      (effects (font (size 1.27 1.27)) (justify left))
      (uuid bb82de2f-c2be-413b-a5d3-fb429ad12d45)
    )
    (pin "2RS232_RXD" input (at 133.985 106.68 180)
      (effects (font (size 1.27 1.27)) (justify left))
      (uuid 2dbde196-01c2-453e-b63c-69d69fc954c4)
    )
    (pin "2RS232_CTS" input (at 133.985 104.14 180)
      (effects (font (size 1.27 1.27)) (justify left))
      (uuid c3724320-40e1-46ed-9015-2b1c1bbbd60b)
    )
    (pin "2TTL_CTS" output (at 161.29 104.14 0)
      (effects (font (size 1.27 1.27)) (justify right))
      (uuid 42fe6d9c-51e2-4543-9fdc-2d590f0db3ab)
    )
    (pin "2TTL_TXD" input (at 161.29 101.6 0)
      (effects (font (size 1.27 1.27)) (justify right))
      (uuid 76b5a51d-8eaf-4f28-ac65-3ee7b4a139a0)
    )
    (pin "2TTL_RXD" output (at 161.29 106.68 0)
      (effects (font (size 1.27 1.27)) (justify right))
      (uuid b790149a-ee74-4ca7-aa05-6f8a3f2761bf)
    )
    (instances
      (project "Dual HFC RS-232 Hat"
        (path "/e63e39d7-6ac0-4ffd-8aa3-1841a4541b55" (page "3"))
      )
    )
  )

  (sheet (at 134.112 119.253) (size 27.305 20.32) (fields_autoplaced)
    (stroke (width 0.1524) (type solid))
    (fill (color 0 0 0 0.0000))
    (uuid 1d8b1923-02f5-4b11-ae5c-303b10dcb91e)
    (property "Sheetname" "Misc" (at 134.112 118.5414 0)
      (effects (font (size 1.27 1.27)) (justify left bottom))
    )
    (property "Sheetfile" "Misc.kicad_sch" (at 134.112 140.1576 0)
      (effects (font (size 1.27 1.27)) (justify left top))
    )
    (instances
      (project "Dual HFC RS-232 Hat"
        (path "/e63e39d7-6ac0-4ffd-8aa3-1841a4541b55" (page "6"))
      )
    )
  )

  (sheet (at 170.18 85.725) (size 19.05 22.86) (fields_autoplaced)
    (stroke (width 0.1524) (type solid))
    (fill (color 0 0 0 0.0000))
    (uuid 5cbd8801-161c-49b3-af1d-77225aeb9fcf)
    (property "Sheetname" "GPIO" (at 170.18 85.0134 0)
      (effects (font (size 1.27 1.27)) (justify left bottom))
    )
    (property "Sheetfile" "GPIO.kicad_sch" (at 170.18 109.1696 0)
      (effects (font (size 1.27 1.27)) (justify left top))
    )
    (pin "1TTL_CTS" input (at 170.18 92.71 180)
      (effects (font (size 1.27 1.27)) (justify left))
      (uuid e69c186d-f824-4bf8-85db-199389058b85)
    )
    (pin "1TTL_RTS" output (at 170.18 87.63 180)
      (effects (font (size 1.27 1.27)) (justify left))
      (uuid 433fb160-6860-4852-8594-f58bfabe7ca5)
    )
    (pin "1TTL_RXD" input (at 170.18 95.25 180)
      (effects (font (size 1.27 1.27)) (justify left))
      (uuid 3d8d3bfc-f65c-4126-a0e6-8333fee733be)
    )
    (pin "1TTL_TXD" output (at 170.18 90.17 180)
      (effects (font (size 1.27 1.27)) (justify left))
      (uuid 8de8c596-d2bb-40ea-b3da-2e1d38375f6e)
    )
    (pin "2TTL_RXD" input (at 170.18 106.68 180)
      (effects (font (size 1.27 1.27)) (justify left))
      (uuid 42c10fd3-3377-446c-9103-f5775bd1a294)
    )
    (pin "2TTL_TXD" output (at 170.18 101.6 180)
      (effects (font (size 1.27 1.27)) (justify left))
      (uuid 24df4dfb-8d23-4d3f-a30e-240f3ca43614)
    )
    (pin "2TTL_RTS" output (at 170.18 99.06 180)
      (effects (font (size 1.27 1.27)) (justify left))
      (uuid e631bda5-74a2-4c3d-823e-883ef9f8232a)
    )
    (pin "2TTL_CTS" input (at 170.18 104.14 180)
      (effects (font (size 1.27 1.27)) (justify left))
      (uuid e2ec8aff-7977-4b74-a99a-a3afd154836e)
    )
    (instances
      (project "Dual HFC RS-232 Hat"
        (path "/e63e39d7-6ac0-4ffd-8aa3-1841a4541b55" (page "4"))
      )
    )
  )

  (sheet (at 109.855 85.725) (size 15.875 22.86) (fields_autoplaced)
    (stroke (width 0.1524) (type solid))
    (fill (color 0 0 0 0.0000))
    (uuid 87e07462-bcfc-415e-b8cb-90746cc09357)
    (property "Sheetname" "RS-232" (at 109.855 85.0134 0)
      (effects (font (size 1.27 1.27)) (justify left bottom))
    )
    (property "Sheetfile" "RS-232.kicad_sch" (at 109.855 109.1696 0)
      (effects (font (size 1.27 1.27)) (justify left top))
    )
    (pin "1D_RTS" input (at 125.73 87.63 0)
      (effects (font (size 1.27 1.27)) (justify right))
      (uuid 12d3985a-91db-425a-b312-4fb8b03d62a7)
    )
    (pin "1D_TXD" input (at 125.73 90.17 0)
      (effects (font (size 1.27 1.27)) (justify right))
      (uuid 30945fae-d6e3-450e-8f1a-9ae04c421d50)
    )
    (pin "2D_RTS" input (at 125.73 99.06 0)
      (effects (font (size 1.27 1.27)) (justify right))
      (uuid 6a2184aa-55f5-4a9d-9231-f3e43278b17d)
    )
    (pin "2D_TXD" input (at 125.73 101.6 0)
      (effects (font (size 1.27 1.27)) (justify right))
      (uuid 6f4136f7-d4a0-4342-9729-9ff0bf10f920)
    )
    (pin "1D_CTS" output (at 125.73 92.71 0)
      (effects (font (size 1.27 1.27)) (justify right))
      (uuid 531e1b5d-c632-4019-8747-5f39f0698365)
    )
    (pin "1D_RXD" output (at 125.73 95.25 0)
      (effects (font (size 1.27 1.27)) (justify right))
      (uuid 652c54ee-ee18-4149-9d53-a8c83a6c9a25)
    )
    (pin "2D_CTS" output (at 125.73 104.14 0)
      (effects (font (size 1.27 1.27)) (justify right))
      (uuid 41a012d7-ab66-4e0d-a8fc-e88f2a112376)
    )
    (pin "2D_RXD" output (at 125.73 106.68 0)
      (effects (font (size 1.27 1.27)) (justify right))
      (uuid d5db02d2-c357-42eb-8a6a-0f4c4df19cad)
    )
    (instances
      (project "Dual HFC RS-232 Hat"
        (path "/e63e39d7-6ac0-4ffd-8aa3-1841a4541b55" (page "2"))
      )
    )
  )

  (sheet (at 133.985 66.04) (size 27.305 12.7) (fields_autoplaced)
    (stroke (width 0.1524) (type solid))
    (fill (color 0 0 0 0.0000))
    (uuid f3683790-77a8-4a06-901f-7c5d66190daa)
    (property "Sheetname" "Power" (at 133.985 65.3284 0)
      (effects (font (size 1.27 1.27)) (justify left bottom))
    )
    (property "Sheetfile" "Power.kicad_sch" (at 133.985 79.3246 0)
      (effects (font (size 1.27 1.27)) (justify left top))
    )
    (instances
      (project "Dual HFC RS-232 Hat"
        (path "/e63e39d7-6ac0-4ffd-8aa3-1841a4541b55" (page "5"))
      )
    )
  )

  (sheet_instances
    (path "/" (page "1"))
  )
)
