(kicad_symbol_lib (version 20220914) (generator bitmap2component)
  (symbol "LOGO" (pin_names (offset 1.016)) (in_bom yes) (on_board yes)
    (property "Reference" "#G" (at 0 14.361 0)
      (effects (font (size 1.27 1.27)) hide)
    )
    (property "Value" "LOGO" (at 0 -14.361 0)
      (effects (font (size 1.27 1.27)) hide)
    )
    (property "Footprint" "" (at 0 0 0)
      (effects (font (size 1.27 1.27)) hide)
    )
    (property "Datasheet" "" (at 0 0 0)
      (effects (font (size 1.27 1.27)) hide)
    )
    (symbol "LOGO_0_0"
      (polyline
        (pts
          (xy -21.728500 -6.061600)
          (xy -21.499300 -5.951600)
          (xy -21.204500 -5.783600)
          (xy -20.868200 -5.573200)
          (xy -20.514800 -5.336200)
          (xy -20.168400 -5.088400)
          (xy -19.853200 -4.845400)
          (xy -19.593500 -4.623100)
          (xy -19.563800 -4.595500)
          (xy -18.928000 -3.908800)
          (xy -18.358400 -3.105300)
          (xy -17.861300 -2.198200)
          (xy -17.443100 -1.200600)
          (xy -17.110200 -0.125800)
          (xy -16.869000 1.013000)
          (xy -16.831600 1.254300)
          (xy -16.746500 1.942300)
          (xy -16.675400 2.718400)
          (xy -16.621200 3.543400)
          (xy -16.586700 4.378000)
          (xy -16.574500 5.182800)
          (xy -16.574500 6.170600)
          (xy -21.859600 6.170600)
          (xy -27.144700 6.170600)
          (xy -27.117100 5.130600)
          (xy -26.401700 5.130600)
          (xy -26.323900 5.166100)
          (xy -26.286000 5.185100)
          (xy -26.335300 5.276800)
          (xy -26.384500 5.361000)
          (xy -26.349900 5.464600)
          (xy -26.271700 5.489800)
          (xy -26.177900 5.389800)
          (xy -26.084100 5.272300)
          (xy -26.004700 5.247800)
          (xy -25.974000 5.345500)
          (xy -25.966800 5.394900)
          (xy -25.909900 5.453100)
          (xy -25.846800 5.415900)
          (xy -25.794600 5.297100)
          (xy -24.922800 5.297100)
          (xy -24.858500 5.351900)
          (xy -24.691400 5.416900)
          (xy -24.575700 5.437000)
          (xy -24.570400 5.388500)
          (xy -24.580500 5.363700)
          (xy -24.543900 5.288100)
          (xy -24.436800 5.251400)
          (xy -24.316300 5.278300)
          (xy -24.276500 5.335400)
          (xy -24.353000 5.421300)
          (xy -24.360300 5.426700)
          (xy -24.411700 5.479700)
          (xy -24.359900 5.501100)
          (xy -24.184900 5.500000)
          (xy -24.162900 5.499100)
          (xy -23.960500 5.472500)
          (xy -23.896000 5.419600)
          (xy -23.971200 5.341600)
          (xy -24.009100 5.288600)
          (xy -24.012400 5.152700)
          (xy -24.016400 5.037300)
          (xy -24.113800 4.873800)
          (xy -24.262400 4.781100)
          (xy -24.467800 4.735600)
          (xy -24.594100 4.741100)
          (xy -24.642300 4.779100)
          (xy -24.593900 4.879300)
          (xy -24.577400 4.909200)
          (xy -24.556100 5.082800)
          (xy -24.645900 5.217800)
          (xy -24.819800 5.267800)
          (xy -24.870600 5.268600)
          (xy -24.922800 5.297100)
          (xy -25.794600 5.297100)
          (xy -25.783400 5.271700)
          (xy -25.758700 5.058100)
          (xy -25.735800 4.950900)
          (xy -25.292300 4.950900)
          (xy -25.202700 5.000500)
          (xy -25.037000 5.022600)
          (xy -24.888200 5.001600)
          (xy -24.825900 4.950900)
          (xy -24.828600 4.940600)
          (xy -24.913600 4.896800)
          (xy -25.081300 4.879100)
          (xy -25.115800 4.879600)
          (xy -25.262000 4.902000)
          (xy -25.292300 4.950900)
          (xy -25.735800 4.950900)
          (xy -25.730900 4.927800)
          (xy -25.604400 4.714200)
          (xy -25.590200 4.699700)
          (xy -24.897700 4.699700)
          (xy -24.861800 4.735600)
          (xy -24.825900 4.699700)
          (xy -24.861800 4.663800)
          (xy -24.897700 4.699700)
          (xy -25.590200 4.699700)
          (xy -25.409500 4.515600)
          (xy -25.183500 4.376300)
          (xy -25.164700 4.368200)
          (xy -25.030200 4.286000)
          (xy -24.988400 4.212400)
          (xy -25.021100 4.159400)
          (xy -25.138700 4.088600)
          (xy -25.272200 4.074000)
          (xy -25.355900 4.130200)
          (xy -25.384300 4.175500)
          (xy -25.502800 4.233300)
          (xy -25.586400 4.265600)
          (xy -25.690200 4.383000)
          (xy -25.848000 4.619300)
          (xy -26.049800 4.831000)
          (xy -26.243000 4.956700)
          (xy -26.273400 4.969900)
          (xy -26.379600 5.051500)
          (xy -26.401700 5.130600)
          (xy -27.117100 5.130600)
          (xy -27.099400 4.466500)
          (xy -27.079300 3.875200)
          (xy -26.467700 3.875200)
          (xy -26.398200 3.959800)
          (xy -26.338300 4.030200)
          (xy -26.314500 4.143600)
          (xy -26.323600 4.202500)
          (xy -26.278000 4.232700)
          (xy -26.185600 4.182800)
          (xy -26.082200 4.065000)
          (xy -25.983000 3.948200)
          (xy -25.720000 3.788800)
          (xy -25.396600 3.731100)
          (xy -25.346800 3.729900)
          (xy -25.219200 3.693300)
          (xy -25.201300 3.638400)
          (xy -24.969400 3.638400)
          (xy -24.899800 3.935500)
          (xy -24.697300 4.201900)
          (xy -24.357100 4.443800)
          (xy -24.291500 4.481900)
          (xy -24.010500 4.689200)
          (xy -23.859800 4.897400)
          (xy -23.764400 5.124300)
          (xy -23.675900 4.829000)
          (xy -23.658900 4.768700)
          (xy -23.624100 4.524400)
          (xy -23.668600 4.301100)
          (xy -23.724700 4.080400)
          (xy -23.749700 3.856200)
          (xy -23.750600 3.809800)
          (xy -23.778900 3.691800)
          (xy -23.857300 3.685300)
          (xy -23.912200 3.696900)
          (xy -23.964900 3.659300)
          (xy -23.977600 3.631700)
          (xy -24.065900 3.630800)
          (xy -24.114800 3.637300)
          (xy -24.283700 3.615800)
          (xy -24.498900 3.556800)
          (xy -24.576500 3.530700)
          (xy -24.791900 3.466200)
          (xy -24.909900 3.457900)
          (xy -24.959400 3.510000)
          (xy -24.969400 3.627000)
          (xy -24.969400 3.638400)
          (xy -25.201300 3.638400)
          (xy -25.184700 3.587600)
          (xy -25.185500 3.555900)
          (xy -25.216900 3.465700)
          (xy -25.315700 3.455000)
          (xy -25.511600 3.517400)
          (xy -25.664600 3.554300)
          (xy -25.803300 3.508600)
          (xy -25.876500 3.463200)
          (xy -25.902200 3.512700)
          (xy -25.951100 3.565400)
          (xy -26.117500 3.551700)
          (xy -26.220500 3.533300)
          (xy -26.311500 3.551600)
          (xy -26.332700 3.647600)
          (xy -26.348200 3.734100)
          (xy -26.422400 3.828200)
          (xy -26.467700 3.875200)
          (xy -27.079300 3.875200)
          (xy -27.077100 3.811200)
          (xy -27.006700 2.624600)
          (xy -26.985300 2.414700)
          (xy -26.246700 2.414700)
          (xy -26.194500 2.504400)
          (xy -26.044300 2.527200)
          (xy -25.999300 2.522800)
          (xy -25.919300 2.533400)
          (xy -25.957600 2.595300)
          (xy -26.033900 2.711300)
          (xy -26.023300 2.823600)
          (xy -25.909200 2.870100)
          (xy -25.798900 2.823500)
          (xy -25.696000 2.649800)
          (xy -25.656600 2.552700)
          (xy -25.569200 2.460000)
          (xy -25.419900 2.452500)
          (xy -25.374100 2.459100)
          (xy -25.250200 2.518800)
          (xy -25.213500 2.662100)
          (xy -25.190000 2.840100)
          (xy -25.102400 2.974000)
          (xy -24.933600 3.013600)
          (xy -24.764900 2.977500)
          (xy -24.708600 2.877700)
          (xy -24.783000 2.734300)
          (xy -24.853000 2.618900)
          (xy -24.897700 2.425400)
          (xy -24.911200 2.318700)
          (xy -24.987400 2.243400)
          (xy -25.166800 2.199300)
          (xy -25.209100 2.193200)
          (xy -25.379800 2.189800)
          (xy -25.459800 2.225700)
          (xy -25.511600 2.283500)
          (xy -25.631900 2.280600)
          (xy -25.758700 2.188400)
          (xy -25.813000 2.134300)
          (xy -25.931900 2.086100)
          (xy -26.005500 2.138100)
          (xy -25.994000 2.275500)
          (xy -25.987300 2.294700)
          (xy -25.998900 2.353200)
          (xy -26.113200 2.333300)
          (xy -26.153300 2.321500)
          (xy -26.243600 2.322500)
          (xy -26.246700 2.414700)
          (xy -26.985300 2.414700)
          (xy -26.897500 1.554200)
          (xy -26.869900 1.377600)
          (xy -25.176800 1.377600)
          (xy -25.095000 1.462200)
          (xy -25.021200 1.536100)
          (xy -24.969400 1.648600)
          (xy -24.939600 1.700700)
          (xy -24.808000 1.686400)
          (xy -24.674500 1.651900)
          (xy -24.384200 1.654700)
          (xy -24.158400 1.783600)
          (xy -24.011000 1.931100)
          (xy -24.221200 2.005900)
          (xy -24.338400 2.049500)
          (xy -24.530500 2.143400)
          (xy -24.629600 2.246900)
          (xy -24.668800 2.388500)
          (xy -24.657700 2.497800)
          (xy -24.557400 2.655900)
          (xy -24.397500 2.755500)
          (xy -24.226200 2.756400)
          (xy -24.156500 2.735500)
          (xy -24.100300 2.750900)
          (xy -24.132000 2.818600)
          (xy -24.235800 2.914300)
          (xy -24.395400 3.013600)
          (xy -24.567000 3.110000)
          (xy -24.681200 3.212300)
          (xy -24.661800 3.291100)
          (xy -24.505500 3.353100)
          (xy -24.209000 3.405200)
          (xy -24.017000 3.428100)
          (xy -23.885900 3.421100)
          (xy -23.812300 3.361200)
          (xy -23.750700 3.231200)
          (xy -23.639000 3.033500)
          (xy -23.456900 2.865700)
          (xy -23.258000 2.802100)
          (xy -23.070400 2.850200)
          (xy -22.922700 3.017200)
          (xy -22.851600 3.215700)
          (xy -22.868000 3.403200)
          (xy -22.987700 3.511800)
          (xy -23.200300 3.522100)
          (xy -23.223800 3.526700)
          (xy -23.230600 3.603300)
          (xy -23.182000 3.662300)
          (xy -23.044500 3.718100)
          (xy -22.972200 3.729100)
          (xy -22.904400 3.757200)
          (xy -22.914800 3.831000)
          (xy -22.995800 3.991900)
          (xy -23.074300 4.198700)
          (xy -23.084600 4.538300)
          (xy -22.953400 4.879100)
          (xy -22.786600 5.115600)
          (xy -22.572100 5.294200)
          (xy -22.314500 5.371300)
          (xy -21.988700 5.353500)
          (xy -21.569700 5.247500)
          (xy -21.487600 5.221800)
          (xy -21.295700 5.157300)
          (xy -21.216000 5.110900)
          (xy -21.229300 5.063900)
          (xy -21.243600 5.053000)
          (xy -20.630800 5.053000)
          (xy -20.603500 5.123500)
          (xy -20.568600 5.139300)
          (xy -20.454300 5.133400)
          (xy -20.402800 5.140100)
          (xy -20.340600 5.240600)
          (xy -20.335100 5.257500)
          (xy -20.279300 5.343600)
          (xy -20.212500 5.313800)
          (xy -19.477900 5.313800)
          (xy -19.441000 5.347100)
          (xy -19.311200 5.381400)
          (xy -19.245000 5.390800)
          (xy -19.100100 5.467500)
          (xy -19.068300 5.493700)
          (xy -18.957200 5.516200)
          (xy -18.772200 5.466200)
          (xy -18.751000 5.458900)
          (xy -18.556900 5.416500)
          (xy -18.413400 5.423600)
          (xy -18.401500 5.427900)
          (xy -18.311200 5.424400)
          (xy -18.311500 5.348600)
          (xy -18.404200 5.237900)
          (xy -18.461300 5.175600)
          (xy -18.467400 5.160700)
          (xy -18.058400 5.160700)
          (xy -17.997000 5.396700)
          (xy -17.829000 5.568100)
          (xy -17.722600 5.630800)
          (xy -17.612000 5.643200)
          (xy -17.471400 5.567300)
          (xy -17.347800 5.450400)
          (xy -17.292000 5.320100)
          (xy -17.312200 5.212900)
          (xy -17.377000 5.008400)
          (xy -17.471000 4.765700)
          (xy -17.649900 4.341000)
          (xy -17.606400 4.708500)
          (xy -17.599800 4.770300)
          (xy -17.596700 5.014300)
          (xy -17.645900 5.127200)
          (xy -17.687300 5.144200)
          (xy -17.806800 5.110300)
          (xy -17.902200 4.978100)
          (xy -17.945000 4.780600)
          (xy -17.947400 4.714000)
          (xy -17.956300 4.630700)
          (xy -17.977200 4.671000)
          (xy -18.019700 4.843200)
          (xy -18.058400 5.160700)
          (xy -18.467400 5.160700)
          (xy -18.511800 5.051500)
          (xy -18.512200 5.045500)
          (xy -18.578300 4.946700)
          (xy -18.723500 4.845100)
          (xy -18.931000 4.771900)
          (xy -19.172000 4.740100)
          (xy -19.320800 4.746700)
          (xy -19.341200 4.766300)
          (xy -19.242500 4.811400)
          (xy -19.228600 4.817100)
          (xy -19.114000 4.910500)
          (xy -19.099000 5.075900)
          (xy -19.110800 5.150000)
          (xy -19.172200 5.246700)
          (xy -19.320700 5.260000)
          (xy -19.448400 5.270000)
          (xy -19.477900 5.313800)
          (xy -20.212500 5.313800)
          (xy -20.191900 5.304600)
          (xy -20.132200 5.223300)
          (xy -20.090400 5.056100)
          (xy -20.089000 5.034800)
          (xy -20.088300 5.033200)
          (xy -19.771800 5.033200)
          (xy -19.717700 5.077600)
          (xy -19.552200 5.094400)
          (xy -19.514400 5.093700)
          (xy -19.367500 5.071200)
          (xy -19.337000 5.022600)
          (xy -19.402000 4.977900)
          (xy -19.552200 4.950900)
          (xy -19.668300 4.966600)
          (xy -19.767500 5.022600)
          (xy -19.771800 5.033200)
          (xy -20.088300 5.033200)
          (xy -20.008500 4.862900)
          (xy -19.820700 4.669500)
          (xy -19.549300 4.480000)
          (xy -19.481300 4.418800)
          (xy -19.472100 4.318600)
          (xy -19.477100 4.310800)
          (xy -19.595800 4.237200)
          (xy -19.760600 4.295700)
          (xy -19.966200 4.484500)
          (xy -20.067900 4.589200)
          (xy -20.224200 4.707000)
          (xy -20.335200 4.735300)
          (xy -20.377400 4.663800)
          (xy -20.389500 4.630800)
          (xy -20.485000 4.592100)
          (xy -20.490900 4.592200)
          (xy -20.577000 4.645800)
          (xy -20.582700 4.748200)
          (xy -20.502900 4.829000)
          (xy -20.466000 4.876500)
          (xy -20.549700 4.967500)
          (xy -20.630800 5.053000)
          (xy -21.243600 5.053000)
          (xy -21.316600 4.997400)
          (xy -21.335700 4.985100)
          (xy -21.533400 4.909900)
          (xy -21.764300 4.879100)
          (xy -21.900500 4.874000)
          (xy -21.999000 4.842100)
          (xy -22.001100 4.769800)
          (xy -21.993800 4.749700)
          (xy -21.998300 4.695600)
          (xy -22.096300 4.733900)
          (xy -22.215000 4.778000)
          (xy -22.414800 4.807300)
          (xy -22.504700 4.794700)
          (xy -22.702800 4.682500)
          (xy -22.860200 4.490700)
          (xy -22.946700 4.263900)
          (xy -22.931700 4.046800)
          (xy -22.906100 3.996400)
          (xy -22.851000 3.993500)
          (xy -22.750800 4.100500)
          (xy -22.747200 4.104900)
          (xy -22.637200 4.205300)
          (xy -22.561700 4.217100)
          (xy -22.545500 4.179900)
          (xy -22.581700 4.073600)
          (xy -22.615500 3.997400)
          (xy -22.650300 3.851300)
          (xy -21.006000 3.851300)
          (xy -20.967200 3.959200)
          (xy -20.905700 3.991500)
          (xy -20.745300 3.951200)
          (xy -20.651800 3.909300)
          (xy -20.617500 3.942700)
          (xy -20.638900 4.088100)
          (xy -20.651900 4.171600)
          (xy -20.640200 4.288300)
          (xy -20.578400 4.288400)
          (xy -20.480600 4.178400)
          (xy -20.360800 3.964300)
          (xy -20.332400 3.907300)
          (xy -19.516300 3.907300)
          (xy -19.497700 3.962300)
          (xy -19.390400 4.101100)
          (xy -19.218600 4.266600)
          (xy -19.017600 4.426100)
          (xy -18.823100 4.546800)
          (xy -18.622000 4.680700)
          (xy -18.447400 4.850200)
          (xy -18.358600 4.954600)
          (xy -18.294700 4.985200)
          (xy -18.251400 4.916600)
          (xy -18.239800 4.786800)
          (xy -18.254700 4.564700)
          (xy -18.292800 4.298300)
          (xy -18.381400 3.802800)
          (xy -18.693500 3.802800)
          (xy -18.775500 3.800400)
          (xy -18.956800 3.775100)
          (xy -19.050000 3.731100)
          (xy -19.099300 3.677500)
          (xy -19.188600 3.676800)
          (xy -19.354900 3.746900)
          (xy -19.458700 3.816400)
          (xy -19.516300 3.907300)
          (xy -20.332400 3.907300)
          (xy -20.299700 3.841500)
          (xy -20.197100 3.690400)
          (xy -20.068700 3.610000)
          (xy -19.863800 3.558800)
          (xy -19.755200 3.536500)
          (xy -19.601900 3.485400)
          (xy -19.531000 3.402700)
          (xy -19.523800 3.366600)
          (xy -19.301100 3.366600)
          (xy -19.300500 3.405100)
          (xy -19.278900 3.492800)
          (xy -19.215500 3.458900)
          (xy -19.193300 3.439500)
          (xy -19.101600 3.426600)
          (xy -18.971400 3.522200)
          (xy -18.831400 3.613900)
          (xy -18.644400 3.647300)
          (xy -18.606600 3.640400)
          (xy -18.518800 3.592400)
          (xy -18.467000 3.476000)
          (xy -18.430800 3.253700)
          (xy -18.430100 3.247900)
          (xy -18.332200 2.872700)
          (xy -18.143800 2.484400)
          (xy -18.016400 2.291600)
          (xy -17.861100 2.128500)
          (xy -17.724600 2.089500)
          (xy -17.593400 2.166900)
          (xy -17.557500 2.224600)
          (xy -17.515100 2.408000)
          (xy -17.511500 2.631100)
          (xy -17.550900 2.828300)
          (xy -17.588300 2.882300)
          (xy -17.700000 2.935600)
          (xy -17.814100 2.927100)
          (xy -17.867200 2.852100)
          (xy -17.878800 2.807500)
          (xy -17.932300 2.863600)
          (xy -17.970500 2.972900)
          (xy -17.925800 3.102900)
          (xy -17.785300 3.157100)
          (xy -17.779300 3.157100)
          (xy -17.684000 3.193000)
          (xy -17.683300 3.318500)
          (xy -17.698600 3.398500)
          (xy -17.733100 3.746800)
          (xy -17.732300 4.125700)
          (xy -17.729100 4.170700)
          (xy -17.704500 4.272600)
          (xy -17.657700 4.242100)
          (xy -17.614700 4.199700)
          (xy -17.508500 4.196700)
          (xy -17.494000 4.203700)
          (xy -17.456400 4.175800)
          (xy -17.447400 4.045500)
          (xy -17.464800 3.793300)
          (xy -17.486300 3.555500)
          (xy -17.506200 3.271900)
          (xy -17.509900 3.052400)
          (xy -17.497500 2.849000)
          (xy -17.469200 2.614000)
          (xy -17.458500 2.510000)
          (xy -17.482500 2.233400)
          (xy -17.596600 2.065600)
          (xy -17.799400 2.009000)
          (xy -17.907100 1.965200)
          (xy -17.936900 1.847000)
          (xy -17.883500 1.693300)
          (xy -17.751100 1.542700)
          (xy -17.564500 1.393900)
          (xy -17.697300 0.966000)
          (xy -17.707700 0.933100)
          (xy -17.795700 0.695500)
          (xy -17.878800 0.569900)
          (xy -17.973700 0.529900)
          (xy -18.059900 0.519000)
          (xy -18.242800 0.468400)
          (xy -18.332700 0.451900)
          (xy -18.368300 0.532700)
          (xy -18.381000 0.592800)
          (xy -18.475900 0.691600)
          (xy -18.560300 0.746400)
          (xy -18.570600 0.824000)
          (xy -18.467200 0.861000)
          (xy -18.391700 0.881200)
          (xy -18.434800 0.962300)
          (xy -18.475800 1.029200)
          (xy -18.443600 1.110000)
          (xy -18.388700 1.130200)
          (xy -18.275300 1.091300)
          (xy -18.224800 0.964400)
          (xy -18.205300 0.890800)
          (xy -18.124500 0.862500)
          (xy -18.019700 0.919900)
          (xy -17.934000 1.050400)
          (xy -17.903400 1.196500)
          (xy -17.964800 1.365200)
          (xy -18.148600 1.470500)
          (xy -18.448700 1.506800)
          (xy -18.650100 1.516400)
          (xy -18.791700 1.561200)
          (xy -18.874200 1.657000)
          (xy -18.884600 1.677900)
          (xy -18.922000 1.895700)
          (xy -18.851200 2.095600)
          (xy -18.689200 2.225100)
          (xy -18.571200 2.289400)
          (xy -18.511800 2.369200)
          (xy -18.513200 2.376700)
          (xy -18.576700 2.472300)
          (xy -18.716600 2.629100)
          (xy -18.906500 2.817300)
          (xy -19.086700 2.998100)
          (xy -19.248900 3.208000)
          (xy -19.301100 3.366600)
          (xy -19.523800 3.366600)
          (xy -19.501500 3.253900)
          (xy -19.498600 3.229300)
          (xy -19.482200 3.076100)
          (xy -19.478100 3.013600)
          (xy -19.485600 3.017300)
          (xy -19.575300 3.068100)
          (xy -19.732700 3.159000)
          (xy -19.773300 3.182300)
          (xy -19.965600 3.283800)
          (xy -20.108300 3.346800)
          (xy -20.175500 3.379300)
          (xy -20.233900 3.452400)
          (xy -20.265700 3.493900)
          (xy -20.383400 3.514300)
          (xy -20.530100 3.494100)
          (xy -20.643800 3.436000)
          (xy -20.704400 3.390800)
          (xy -20.795800 3.390700)
          (xy -20.826600 3.472200)
          (xy -20.765500 3.594700)
          (xy -20.699600 3.671400)
          (xy -20.690200 3.722300)
          (xy -20.792500 3.731100)
          (xy -20.931300 3.762800)
          (xy -21.006000 3.851300)
          (xy -22.650300 3.851300)
          (xy -22.660800 3.807100)
          (xy -22.694900 3.564100)
          (xy -22.702200 3.497900)
          (xy -22.785600 3.126000)
          (xy -22.935800 2.867300)
          (xy -23.161500 2.705700)
          (xy -23.316700 2.612200)
          (xy -23.485800 2.457800)
          (xy -23.618000 2.349800)
          (xy -23.790800 2.296000)
          (xy -23.799200 2.296000)
          (xy -23.937200 2.267800)
          (xy -23.944500 2.185200)
          (xy -23.821400 2.044900)
          (xy -23.781700 2.008000)
          (xy -23.692200 1.891600)
          (xy -23.727000 1.807400)
          (xy -23.893500 1.721900)
          (xy -23.928800 1.705600)
          (xy -24.126200 1.575000)
          (xy -24.310100 1.403600)
          (xy -24.362500 1.347500)
          (xy -24.496800 1.233300)
          (xy -24.586000 1.199600)
          (xy -24.644100 1.194500)
          (xy -24.752200 1.114500)
          (xy -24.839200 1.042000)
          (xy -24.963400 1.003600)
          (xy -25.054400 1.029700)
          (xy -25.064400 1.119400)
          (xy -25.055900 1.186600)
          (xy -25.120400 1.300100)
          (xy -25.139100 1.313000)
          (xy -25.176800 1.377600)
          (xy -26.869900 1.377600)
          (xy -26.745900 0.584300)
          (xy -26.548000 -0.300600)
          (xy -26.423900 -0.708800)
          (xy -26.178500 -0.708800)
          (xy -24.587400 0.555200)
          (xy -24.293400 0.788700)
          (xy -23.694500 1.263800)
          (xy -23.164800 1.683300)
          (xy -22.712900 2.040300)
          (xy -22.347300 2.328200)
          (xy -22.076700 2.540100)
          (xy -21.909600 2.669200)
          (xy -21.900800 2.671300)
          (xy -21.795700 2.623800)
          (xy -21.583100 2.484700)
          (xy -21.264200 2.255000)
          (xy -20.895500 1.977000)
          (xy -20.292000 1.977000)
          (xy -20.285800 2.076200)
          (xy -20.180000 2.196200)
          (xy -20.111600 2.263200)
          (xy -20.148400 2.293800)
          (xy -20.182100 2.299100)
          (xy -20.206700 2.347200)
          (xy -20.151000 2.409000)
          (xy -20.046500 2.439600)
          (xy -20.042800 2.439400)
          (xy -19.946700 2.373700)
          (xy -19.864200 2.223900)
          (xy -19.782800 2.076400)
          (xy -19.611500 1.963600)
          (xy -19.569000 1.954200)
          (xy -19.417600 1.961300)
          (xy -19.330800 2.068300)
          (xy -19.288300 2.296000)
          (xy -19.276500 2.387100)
          (xy -19.220800 2.520100)
          (xy -19.103500 2.570200)
          (xy -19.019900 2.571300)
          (xy -18.913700 2.504100)
          (xy -18.907300 2.364900)
          (xy -19.007200 2.180900)
          (xy -19.016200 2.169300)
          (xy -19.116400 2.016000)
          (xy -19.157600 1.906600)
          (xy -19.204200 1.846700)
          (xy -19.344400 1.779000)
          (xy -19.523900 1.728000)
          (xy -19.686700 1.709000)
          (xy -19.777000 1.737400)
          (xy -19.850000 1.770900)
          (xy -19.999600 1.760100)
          (xy -20.049400 1.748700)
          (xy -20.142200 1.750900)
          (xy -20.137600 1.826000)
          (xy -20.128100 1.890400)
          (xy -20.200200 1.937300)
          (xy -20.292000 1.977000)
          (xy -20.895500 1.977000)
          (xy -20.840700 1.935700)
          (xy -20.313900 1.527900)
          (xy -19.685300 1.032600)
          (xy -19.603400 0.967700)
          (xy -19.129600 0.591900)
          (xy -18.694400 0.246800)
          (xy -18.310000 -0.057900)
          (xy -17.988900 -0.312500)
          (xy -17.743200 -0.507100)
          (xy -17.585300 -0.632100)
          (xy -17.527600 -0.677700)
          (xy -17.526900 -0.721700)
          (xy -17.561200 -0.854400)
          (xy -17.617500 -1.019400)
          (xy -17.675900 -1.160000)
          (xy -17.716700 -1.219400)
          (xy -17.778400 -1.177700)
          (xy -17.939800 -1.056200)
          (xy -18.188000 -0.864900)
          (xy -18.510000 -0.613800)
          (xy -18.893200 -0.312800)
          (xy -19.324700 0.028000)
          (xy -19.791800 0.398700)
          (xy -21.825100 2.016400)
          (xy -22.087800 1.817200)
          (xy -22.120400 1.792200)
          (xy -22.279200 1.668300)
          (xy -22.527900 1.472700)
          (xy -22.850200 1.218300)
          (xy -23.229800 0.917900)
          (xy -23.650400 0.584400)
          (xy -24.095600 0.230800)
          (xy -24.293000 0.074100)
          (xy -24.714200 -0.258600)
          (xy -25.095300 -0.557400)
          (xy -25.421800 -0.811200)
          (xy -25.679400 -1.008800)
          (xy -25.853700 -1.139100)
          (xy -25.930300 -1.190800)
          (xy -25.941000 -1.193500)
          (xy -26.022800 -1.137700)
          (xy -26.099200 -0.967000)
          (xy -26.178500 -0.708800)
          (xy -26.423900 -0.708800)
          (xy -26.300100 -1.116100)
          (xy -25.998400 -1.877800)
          (xy -25.884700 -2.106800)
          (xy -25.600500 -2.106800)
          (xy -23.801700 -0.676700)
          (xy -23.559200 -0.484000)
          (xy -23.134000 -0.147100)
          (xy -22.750100 0.156100)
          (xy -22.421700 0.414500)
          (xy -22.163000 0.616800)
          (xy -21.988100 0.751900)
          (xy -21.911300 0.808700)
          (xy -21.850200 0.793100)
          (xy -21.677900 0.690200)
          (xy -21.400200 0.496200)
          (xy -21.019000 0.212600)
          (xy -20.536200 -0.159300)
          (xy -19.953700 -0.618100)
          (xy -18.087700 -2.100400)
          (xy -18.201300 -2.323800)
          (xy -18.213400 -2.347500)
          (xy -18.293000 -2.497900)
          (xy -18.337900 -2.573400)
          (xy -18.351200 -2.567800)
          (xy -18.455800 -2.495400)
          (xy -18.652700 -2.348500)
          (xy -18.928000 -2.137700)
          (xy -19.268100 -1.873700)
          (xy -19.659100 -1.566900)
          (xy -20.087400 -1.228100)
          (xy -20.277400 -1.077200)
          (xy -20.691500 -0.749200)
          (xy -21.062400 -0.456700)
          (xy -21.376300 -0.210300)
          (xy -21.619300 -0.021000)
          (xy -21.777700 0.100600)
          (xy -21.837700 0.143500)
          (xy -21.849700 0.136000)
          (xy -21.952100 0.059200)
          (xy -22.147100 -0.091600)
          (xy -22.421000 -0.305700)
          (xy -22.759800 -0.572100)
          (xy -23.149800 -0.880200)
          (xy -23.577000 -1.218900)
          (xy -23.578100 -1.219800)
          (xy -22.601700 -1.219800)
          (xy -22.547500 -1.170800)
          (xy -22.404300 -1.149100)
          (xy -22.341600 -1.150700)
          (xy -22.266100 -1.170000)
          (xy -22.314600 -1.219800)
          (xy -22.420800 -1.271500)
          (xy -22.548500 -1.283400)
          (xy -22.601700 -1.219800)
          (xy -23.578100 -1.219800)
          (xy -23.755800 -1.360800)
          (xy -23.943400 -1.509000)
          (xy -23.390900 -1.509000)
          (xy -23.390500 -1.500100)
          (xy -23.333900 -1.439900)
          (xy -23.220100 -1.456200)
          (xy -23.103900 -1.542700)
          (xy -22.999700 -1.637900)
          (xy -22.938800 -1.617300)
          (xy -22.943000 -1.469900)
          (xy -22.951200 -1.421800)
          (xy -22.942000 -1.328100)
          (xy -22.861300 -1.334000)
          (xy -22.799400 -1.378700)
          (xy -22.768800 -1.454900)
          (xy -22.212500 -1.454900)
          (xy -22.147400 -1.376600)
          (xy -22.074500 -1.283300)
          (xy -22.035900 -1.133100)
          (xy -22.125400 -0.988800)
          (xy -22.156600 -0.954500)
          (xy -22.168900 -0.883300)
          (xy -22.059600 -0.813800)
          (xy -22.016200 -0.794100)
          (xy -21.930200 -0.773700)
          (xy -21.933600 -0.834700)
          (xy -21.943500 -0.888200)
          (xy -21.878300 -0.930400)
          (xy -21.704600 -0.886900)
          (xy -21.628600 -0.839100)
          (xy -21.680800 -0.780400)
          (xy -21.697800 -0.767200)
          (xy -21.672600 -0.731500)
          (xy -21.510900 -0.718600)
          (xy -21.245300 -0.717500)
          (xy -21.339900 -0.942500)
          (xy -21.343200 -0.950200)
          (xy -21.443000 -1.123600)
          (xy -21.549800 -1.232000)
          (xy -21.584600 -1.249800)
          (xy -21.753100 -1.322400)
          (xy -21.966100 -1.402800)
          (xy -22.083300 -1.443600)
          (xy -22.198400 -1.476200)
          (xy -22.212500 -1.454900)
          (xy -22.768800 -1.454900)
          (xy -22.745200 -1.513800)
          (xy -22.717900 -1.611200)
          (xy -22.606700 -1.735500)
          (xy -22.513600 -1.828300)
          (xy -22.537500 -1.951400)
          (xy -22.605900 -2.037800)
          (xy -22.734800 -2.069200)
          (xy -22.389600 -2.069200)
          (xy -22.332300 -1.953400)
          (xy -22.199800 -1.813700)
          (xy -22.009700 -1.671200)
          (xy -21.779600 -1.547100)
          (xy -21.625200 -1.469900)
          (xy -21.415800 -1.335900)
          (xy -21.285800 -1.214500)
          (xy -21.194300 -1.110400)
          (xy -21.131300 -1.087600)
          (xy -21.122100 -1.131700)
          (xy -21.117800 -1.295000)
          (xy -21.124100 -1.547000)
          (xy -21.133900 -1.731400)
          (xy -20.799200 -1.731400)
          (xy -20.727200 -1.586200)
          (xy -20.539500 -1.520200)
          (xy -20.492700 -1.517000)
          (xy -20.300900 -1.551800)
          (xy -20.127000 -1.692100)
          (xy -20.102300 -1.719400)
          (xy -19.991800 -1.862200)
          (xy -19.946900 -1.957400)
          (xy -19.948200 -1.965300)
          (xy -19.997500 -1.946300)
          (xy -20.095600 -1.839300)
          (xy -20.103700 -1.829200)
          (xy -20.235100 -1.702500)
          (xy -20.346700 -1.650300)
          (xy -20.421200 -1.668000)
          (xy -20.438000 -1.747800)
          (xy -20.341500 -1.865500)
          (xy -20.326500 -1.878400)
          (xy -20.247800 -1.990100)
          (xy -20.254400 -2.136200)
          (xy -20.346700 -2.356800)
          (xy -20.363200 -2.389300)
          (xy -20.454600 -2.544900)
          (xy -20.505300 -2.569200)
          (xy -20.520900 -2.466000)
          (xy -20.522700 -2.444500)
          (xy -20.572700 -2.293400)
          (xy -20.669500 -2.108300)
          (xy -20.753800 -1.947800)
          (xy -20.799200 -1.731400)
          (xy -21.133900 -1.731400)
          (xy -21.140500 -1.855700)
          (xy -21.157000 -2.078800)
          (xy -21.181600 -2.331900)
          (xy -21.205300 -2.498000)
          (xy -21.224700 -2.548900)
          (xy -21.251200 -2.540100)
          (xy -21.345700 -2.582800)
          (xy -21.352300 -2.587500)
          (xy -21.454500 -2.579300)
          (xy -21.583400 -2.492300)
          (xy -21.693800 -2.365900)
          (xy -21.740600 -2.239100)
          (xy -21.741800 -2.223900)
          (xy -21.791000 -2.193600)
          (xy -21.932300 -2.242900)
          (xy -21.985300 -2.265900)
          (xy -22.102900 -2.293400)
          (xy -22.153500 -2.241400)
          (xy -22.174100 -2.205600)
          (xy -22.284800 -2.152500)
          (xy -22.354200 -2.140200)
          (xy -22.389600 -2.069200)
          (xy -22.734800 -2.069200)
          (xy -22.744700 -2.071600)
          (xy -22.891200 -1.970100)
          (xy -22.962800 -1.909200)
          (xy -23.057800 -1.934200)
          (xy -23.078800 -1.952700)
          (xy -23.211400 -2.005400)
          (xy -23.335900 -1.986200)
          (xy -23.390900 -1.901400)
          (xy -23.378400 -1.851200)
          (xy -23.283300 -1.793800)
          (xy -23.233900 -1.786600)
          (xy -23.175700 -1.729700)
          (xy -23.188300 -1.694800)
          (xy -23.283300 -1.624300)
          (xy -23.333600 -1.596400)
          (xy -23.390900 -1.509000)
          (xy -23.943400 -1.509000)
          (xy -24.170600 -1.688500)
          (xy -24.543300 -1.981100)
          (xy -24.859900 -2.227600)
          (xy -25.106400 -2.417200)
          (xy -25.177900 -2.470900)
          (xy -24.169100 -2.470900)
          (xy -24.110300 -2.375300)
          (xy -23.965300 -2.296100)
          (xy -23.852500 -2.251000)
          (xy -23.877100 -2.198300)
          (xy -23.913500 -2.165700)
          (xy -23.926000 -2.075800)
          (xy -23.827600 -2.009700)
          (xy -23.700600 -2.050000)
          (xy -23.592900 -2.188800)
          (xy -23.495400 -2.307000)
          (xy -23.281400 -2.425700)
          (xy -23.011000 -2.493800)
          (xy -22.732200 -2.494100)
          (xy -22.591700 -2.492900)
          (xy -22.529900 -2.553700)
          (xy -22.526900 -2.587600)
          (xy -22.329600 -2.587600)
          (xy -22.285100 -2.493900)
          (xy -22.126500 -2.437000)
          (xy -22.120200 -2.435700)
          (xy -21.966100 -2.422700)
          (xy -21.847400 -2.479800)
          (xy -21.708500 -2.633000)
          (xy -21.646700 -2.706100)
          (xy -21.503100 -2.823900)
          (xy -21.376400 -2.832400)
          (xy -21.294500 -2.820100)
          (xy -21.248900 -2.879000)
          (xy -21.238400 -3.048200)
          (xy -21.235000 -3.107400)
          (xy -20.554300 -3.107400)
          (xy -20.518500 -3.009100)
          (xy -20.454100 -2.926900)
          (xy -20.339000 -2.870100)
          (xy -20.291800 -2.862400)
          (xy -20.233900 -2.798300)
          (xy -20.222900 -2.766300)
          (xy -20.129500 -2.726500)
          (xy -20.123000 -2.726200)
          (xy -20.038400 -2.649900)
          (xy -19.980100 -2.457500)
          (xy -19.939600 -2.235100)
          (xy -19.908600 -2.124100)
          (xy -19.889800 -2.149300)
          (xy -19.880800 -2.307300)
          (xy -19.868700 -2.469100)
          (xy -19.824200 -2.538300)
          (xy -19.723500 -2.530000)
          (xy -19.661600 -2.515800)
          (xy -19.607600 -2.532500)
          (xy -19.651700 -2.639600)
          (xy -19.699000 -2.749000)
          (xy -19.731600 -2.895700)
          (xy -19.736500 -2.923300)
          (xy -19.809800 -3.056600)
          (xy -19.943100 -3.214000)
          (xy -20.005700 -3.276000)
          (xy -20.108800 -3.365200)
          (xy -20.155400 -3.361700)
          (xy -20.176300 -3.273300)
          (xy -20.180100 -3.251200)
          (xy -20.242200 -3.152200)
          (xy -20.395500 -3.134700)
          (xy -20.492300 -3.137700)
          (xy -20.554300 -3.107400)
          (xy -21.235000 -3.107400)
          (xy -21.230200 -3.189800)
          (xy -21.147400 -3.484000)
          (xy -20.992700 -3.689900)
          (xy -20.787400 -3.793800)
          (xy -20.552800 -3.782200)
          (xy -20.310200 -3.641400)
          (xy -20.126200 -3.479900)
          (xy -20.305600 -3.684500)
          (xy -20.347800 -3.731300)
          (xy -20.467600 -3.831600)
          (xy -20.605400 -3.864600)
          (xy -20.822600 -3.849700)
          (xy -20.981000 -3.832600)
          (xy -21.097900 -3.834100)
          (xy -21.122400 -3.877900)
          (xy -21.083700 -3.978100)
          (xy -21.000300 -4.101100)
          (xy -20.839400 -4.235700)
          (xy -20.671500 -4.325500)
          (xy -20.922500 -4.631800)
          (xy -20.990800 -4.712600)
          (xy -21.199100 -4.917700)
          (xy -21.354800 -4.997900)
          (xy -21.453600 -4.950800)
          (xy -21.462400 -4.939700)
          (xy -21.563600 -4.911900)
          (xy -21.683000 -4.948400)
          (xy -21.740600 -5.027700)
          (xy -21.770800 -5.081500)
          (xy -21.884100 -5.166100)
          (xy -21.953100 -5.194700)
          (xy -22.024900 -5.177100)
          (xy -22.008500 -5.080000)
          (xy -21.902100 -4.927300)
          (xy -21.830700 -4.842500)
          (xy -21.827800 -4.803900)
          (xy -21.937900 -4.825200)
          (xy -22.048100 -4.834400)
          (xy -22.144400 -4.792600)
          (xy -22.155400 -4.766600)
          (xy -22.119900 -4.681100)
          (xy -22.001700 -4.629800)
          (xy -21.848300 -4.637700)
          (xy -21.819500 -4.645800)
          (xy -21.748700 -4.650900)
          (xy -21.794400 -4.585800)
          (xy -21.851600 -4.515300)
          (xy -21.873800 -4.413800)
          (xy -21.774700 -4.376800)
          (xy -21.688500 -4.417400)
          (xy -21.600900 -4.546400)
          (xy -21.589300 -4.574900)
          (xy -21.475400 -4.729300)
          (xy -21.339000 -4.754600)
          (xy -21.204500 -4.644900)
          (xy -21.132100 -4.528400)
          (xy -21.094900 -4.435600)
          (xy -21.123500 -4.398300)
          (xy -21.247300 -4.305100)
          (xy -21.435700 -4.189100)
          (xy -21.605500 -4.087600)
          (xy -21.815200 -3.930000)
          (xy -21.924400 -3.781500)
          (xy -21.955900 -3.617400)
          (xy -21.941900 -3.531200)
          (xy -21.824200 -3.412000)
          (xy -21.587000 -3.372300)
          (xy -21.492400 -3.351400)
          (xy -21.503500 -3.287100)
          (xy -21.625800 -3.191800)
          (xy -21.848000 -3.078000)
          (xy -21.897300 -3.055800)
          (xy -22.133200 -2.926400)
          (xy -22.265400 -2.792300)
          (xy -22.325800 -2.623400)
          (xy -22.329600 -2.587600)
          (xy -22.526900 -2.587600)
          (xy -22.525500 -2.603900)
          (xy -22.486300 -2.756600)
          (xy -22.477800 -2.783700)
          (xy -22.504600 -2.859500)
          (xy -22.633400 -2.850600)
          (xy -22.852800 -2.756700)
          (xy -23.055300 -2.689100)
          (xy -23.258900 -2.682300)
          (xy -23.392000 -2.689500)
          (xy -23.489800 -2.615800)
          (xy -23.546900 -2.530900)
          (xy -23.637800 -2.532000)
          (xy -23.715100 -2.658700)
          (xy -23.728700 -2.692900)
          (xy -23.810100 -2.770900)
          (xy -23.889100 -2.749600)
          (xy -23.909400 -2.635700)
          (xy -23.926700 -2.559200)
          (xy -24.042200 -2.563700)
          (xy -24.059400 -2.568000)
          (xy -24.160900 -2.565900)
          (xy -24.169100 -2.470900)
          (xy -25.177900 -2.470900)
          (xy -25.268700 -2.539100)
          (xy -25.332900 -2.582200)
          (xy -25.340500 -2.579500)
          (xy -25.403000 -2.500000)
          (xy -25.486900 -2.344900)
          (xy -25.600500 -2.106800)
          (xy -25.884700 -2.106800)
          (xy -25.639200 -2.601300)
          (xy -25.218600 -3.302200)
          (xy -24.876500 -3.755800)
          (xy -23.699600 -3.755800)
          (xy -23.668100 -3.709700)
          (xy -23.563300 -3.687900)
          (xy -23.518900 -3.697600)
          (xy -23.428600 -3.662300)
          (xy -23.420800 -3.632900)
          (xy -23.480200 -3.566800)
          (xy -23.531800 -3.528900)
          (xy -23.487300 -3.445400)
          (xy -23.458000 -3.419700)
          (xy -23.381100 -3.423100)
          (xy -23.281700 -3.544000)
          (xy -23.196800 -3.648200)
          (xy -23.062500 -3.714500)
          (xy -22.844500 -3.731100)
          (xy -22.675900 -3.728500)
          (xy -22.560300 -3.705900)
          (xy -22.548800 -3.641800)
          (xy -22.619100 -3.514600)
          (xy -22.642300 -3.470100)
          (xy -22.654200 -3.300200)
          (xy -22.558100 -3.175600)
          (xy -22.382000 -3.140400)
          (xy -22.371800 -3.141700)
          (xy -22.181200 -3.201100)
          (xy -22.092100 -3.334200)
          (xy -22.085300 -3.568700)
          (xy -22.097200 -3.669300)
          (xy -22.140700 -3.798700)
          (xy -22.244000 -3.882300)
          (xy -22.446400 -3.962500)
          (xy -22.550400 -3.994400)
          (xy -22.792800 -4.040200)
          (xy -22.980900 -4.040100)
          (xy -23.120900 -4.033200)
          (xy -23.321700 -4.128000)
          (xy -23.406400 -4.200500)
          (xy -23.454700 -4.204300)
          (xy -23.462700 -4.094200)
          (xy -23.484800 -3.992500)
          (xy -23.601200 -3.896700)
          (xy -23.677900 -3.857900)
          (xy -23.699600 -3.755800)
          (xy -24.876500 -3.755800)
          (xy -24.704100 -3.984300)
          (xy -24.035600 -4.665900)
          (xy -23.257200 -5.288600)
          (xy -22.384400 -5.838800)
          (xy -22.352900 -5.856200)
          (xy -22.124700 -5.978400)
          (xy -21.949600 -6.065000)
          (xy -21.863300 -6.098000)
          (xy -21.728500 -6.061600)
        )
        (stroke (width 0.01) (type default))
        (fill (type outline))
      )
      (polyline
        (pts
          (xy 19.427800 -2.688400)
          (xy 19.768800 -2.622100)
          (xy 20.065400 -2.510000)
          (xy 20.553100 -2.213900)
          (xy 20.967800 -1.814200)
          (xy 21.288900 -1.332400)
          (xy 21.496100 -0.790400)
          (xy 21.519300 -0.690700)
          (xy 21.575400 -0.102200)
          (xy 21.499300 0.470000)
          (xy 21.300400 1.006100)
          (xy 20.988300 1.486400)
          (xy 20.572500 1.890900)
          (xy 20.062500 2.200000)
          (xy 19.927300 2.259900)
          (xy 19.721800 2.334300)
          (xy 19.514300 2.377400)
          (xy 19.257800 2.397400)
          (xy 18.905000 2.402600)
          (xy 18.578300 2.400000)
          (xy 18.329300 2.384400)
          (xy 18.132400 2.346600)
          (xy 17.940600 2.277500)
          (xy 17.707000 2.167800)
          (xy 17.669400 2.149000)
          (xy 17.169500 1.819700)
          (xy 16.773600 1.406700)
          (xy 16.486000 0.928100)
          (xy 16.310600 0.402200)
          (xy 16.264500 -0.031900)
          (xy 17.441700 -0.031900)
          (xy 17.540600 0.419700)
          (xy 17.772600 0.843700)
          (xy 17.955800 1.040800)
          (xy 18.292800 1.249400)
          (xy 18.677300 1.352500)
          (xy 19.080800 1.351300)
          (xy 19.474900 1.247300)
          (xy 19.831000 1.041700)
          (xy 20.120700 0.735800)
          (xy 20.240100 0.520100)
          (xy 20.356200 0.109200)
          (xy 20.369300 -0.330900)
          (xy 20.274400 -0.751300)
          (xy 20.179000 -0.943500)
          (xy 19.940100 -1.248000)
          (xy 19.640300 -1.495900)
          (xy 19.324200 -1.645100)
          (xy 19.010800 -1.700100)
          (xy 18.573800 -1.665900)
          (xy 18.177400 -1.502100)
          (xy 17.842400 -1.214600)
          (xy 17.640000 -0.923000)
          (xy 17.475100 -0.487300)
          (xy 17.441700 -0.031900)
          (xy 16.264500 -0.031900)
          (xy 16.251600 -0.152800)
          (xy 16.313100 -0.718800)
          (xy 16.499100 -1.277500)
          (xy 16.813700 -1.810600)
          (xy 16.857900 -1.865300)
          (xy 17.088500 -2.081800)
          (xy 17.391600 -2.301800)
          (xy 17.717500 -2.491800)
          (xy 18.016500 -2.618400)
          (xy 18.191300 -2.660900)
          (xy 18.578800 -2.707600)
          (xy 19.011100 -2.716800)
          (xy 19.427800 -2.688400)
        )
        (stroke (width 0.01) (type default))
        (fill (type outline))
      )
      (polyline
        (pts
          (xy 24.937200 -2.689300)
          (xy 25.222900 -2.655100)
          (xy 25.460600 -2.593900)
          (xy 25.701100 -2.496100)
          (xy 25.744800 -2.475300)
          (xy 26.221700 -2.167200)
          (xy 26.632100 -1.750100)
          (xy 26.948500 -1.251700)
          (xy 26.983800 -1.178600)
          (xy 27.075300 -0.961200)
          (xy 27.128000 -0.757000)
          (xy 27.152200 -0.513800)
          (xy 27.158000 -0.179400)
          (xy 27.148900 0.163400)
          (xy 27.107500 0.512400)
          (xy 27.028100 0.783500)
          (xy 26.800400 1.222700)
          (xy 26.429500 1.680000)
          (xy 25.975500 2.036300)
          (xy 25.455300 2.283800)
          (xy 24.885900 2.414900)
          (xy 24.284400 2.421900)
          (xy 23.667600 2.297200)
          (xy 23.402700 2.196900)
          (xy 22.913100 1.910300)
          (xy 22.492500 1.528300)
          (xy 22.165000 1.075000)
          (xy 21.955100 0.575000)
          (xy 21.945400 0.538200)
          (xy 21.890300 0.152200)
          (xy 21.889000 -0.144900)
          (xy 23.058700 -0.144900)
          (xy 23.114100 0.285300)
          (xy 23.283400 0.681700)
          (xy 23.482700 0.937600)
          (xy 23.813000 1.190300)
          (xy 24.188300 1.334100)
          (xy 24.583600 1.370800)
          (xy 24.973700 1.302500)
          (xy 25.333700 1.130900)
          (xy 25.638500 0.858000)
          (xy 25.863000 0.485700)
          (xy 25.875100 0.455700)
          (xy 25.978300 0.025200)
          (xy 25.965900 -0.412300)
          (xy 25.846600 -0.825200)
          (xy 25.629300 -1.182300)
          (xy 25.322700 -1.452000)
          (xy 25.315900 -1.456200)
          (xy 24.890400 -1.640100)
          (xy 24.450800 -1.689600)
          (xy 24.020600 -1.605600)
          (xy 23.623500 -1.388900)
          (xy 23.520900 -1.301600)
          (xy 23.267600 -0.972000)
          (xy 23.111700 -0.575200)
          (xy 23.058700 -0.144900)
          (xy 21.889000 -0.144900)
          (xy 21.888300 -0.293700)
          (xy 21.936400 -0.734700)
          (xy 22.031600 -1.106000)
          (xy 22.061300 -1.180600)
          (xy 22.327100 -1.646300)
          (xy 22.698500 -2.063000)
          (xy 23.143400 -2.400200)
          (xy 23.629500 -2.627200)
          (xy 23.803000 -2.667400)
          (xy 24.160600 -2.702200)
          (xy 24.610800 -2.704800)
          (xy 24.937200 -2.689300)
        )
        (stroke (width 0.01) (type default))
        (fill (type outline))
      )
      (polyline
        (pts
          (xy -12.597800 -2.639800)
          (xy -12.090100 -2.618900)
          (xy -11.552700 -1.062000)
          (xy -11.460300 -0.797300)
          (xy -11.313000 -0.389900)
          (xy -11.183200 -0.047900)
          (xy -11.077800 0.211000)
          (xy -11.003900 0.369200)
          (xy -10.968500 0.408900)
          (xy -10.965300 0.402300)
          (xy -10.921400 0.289800)
          (xy -10.840300 0.067300)
          (xy -10.729900 -0.243300)
          (xy -10.598000 -0.619900)
          (xy -10.452500 -1.040400)
          (xy -10.429500 -1.107300)
          (xy -10.285100 -1.526200)
          (xy -10.155500 -1.900600)
          (xy -10.048600 -2.207800)
          (xy -9.972400 -2.425000)
          (xy -9.934900 -2.529200)
          (xy -9.911300 -2.571400)
          (xy -9.829200 -2.622800)
          (xy -9.668700 -2.648100)
          (xy -9.397700 -2.654800)
          (xy -8.909000 -2.654800)
          (xy -8.795900 -2.349900)
          (xy -8.775200 -2.292400)
          (xy -8.703700 -2.087700)
          (xy -8.596400 -1.775900)
          (xy -8.459800 -1.376000)
          (xy -8.300300 -0.907100)
          (xy -8.124500 -0.388200)
          (xy -7.938900 0.161400)
          (xy -7.195000 2.367800)
          (xy -7.791800 2.367800)
          (xy -8.388700 2.367800)
          (xy -8.613300 1.632300)
          (xy -8.688000 1.387900)
          (xy -8.823300 0.945500)
          (xy -8.966200 0.478200)
          (xy -9.096100 0.053800)
          (xy -9.103100 0.031000)
          (xy -9.204500 -0.288400)
          (xy -9.293400 -0.549100)
          (xy -9.360300 -0.724800)
          (xy -9.396000 -0.789300)
          (xy -9.410900 -0.765800)
          (xy -9.467600 -0.628600)
          (xy -9.558000 -0.385200)
          (xy -9.675200 -0.054700)
          (xy -9.812500 0.344200)
          (xy -9.963100 0.792300)
          (xy -10.488400 2.373800)
          (xy -10.998900 2.352900)
          (xy -11.509500 2.331900)
          (xy -12.015000 0.774900)
          (xy -12.094100 0.532300)
          (xy -12.234500 0.107200)
          (xy -12.358100 -0.260300)
          (xy -12.458200 -0.550500)
          (xy -12.528000 -0.743600)
          (xy -12.560700 -0.819900)
          (xy -12.576400 -0.799500)
          (xy -12.630400 -0.666400)
          (xy -12.715100 -0.425900)
          (xy -12.824300 -0.096600)
          (xy -12.951700 0.303200)
          (xy -13.091100 0.755100)
          (xy -13.581400 2.367800)
          (xy -14.186400 2.367800)
          (xy -14.371800 2.366100)
          (xy -14.613600 2.353000)
          (xy -14.739700 2.324500)
          (xy -14.768100 2.278000)
          (xy -14.744600 2.204000)
          (xy -14.679600 2.007400)
          (xy -14.578900 1.705400)
          (xy -14.447700 1.314000)
          (xy -14.291400 0.849300)
          (xy -14.115500 0.327200)
          (xy -13.925200 -0.236200)
          (xy -13.105500 -2.660600)
          (xy -12.597800 -2.639800)
        )
        (stroke (width 0.01) (type default))
        (fill (type outline))
      )
      (polyline
        (pts
          (xy -6.263900 -2.134600)
          (xy -6.053400 -1.614400)
          (xy -4.986700 -1.614400)
          (xy -3.919900 -1.614400)
          (xy -3.709500 -2.134600)
          (xy -3.499100 -2.654800)
          (xy -2.899600 -2.654800)
          (xy -2.300100 -2.654800)
          (xy -2.478200 -2.242200)
          (xy -2.499500 -2.192900)
          (xy -2.591000 -1.978900)
          (xy -2.726900 -1.660700)
          (xy -2.898300 -1.258400)
          (xy -3.096800 -0.792200)
          (xy -3.313800 -0.282300)
          (xy -3.540500 0.251100)
          (xy -4.424700 2.331900)
          (xy -4.964700 2.352700)
          (xy -5.504700 2.373500)
          (xy -6.512100 0.010000)
          (xy -6.725100 -0.490500)
          (xy -6.746100 -0.540000)
          (xy -5.596600 -0.540000)
          (xy -5.580400 -0.482900)
          (xy -5.520900 -0.320100)
          (xy -5.431300 -0.090100)
          (xy -5.326400 0.170500)
          (xy -5.220800 0.425500)
          (xy -5.129200 0.638500)
          (xy -5.066300 0.773100)
          (xy -5.045300 0.811300)
          (xy -5.004600 0.856800)
          (xy -4.959600 0.838500)
          (xy -4.898100 0.739000)
          (xy -4.807600 0.541000)
          (xy -4.675800 0.227300)
          (xy -4.575900 -0.015700)
          (xy -4.472900 -0.272500)
          (xy -4.402700 -0.454800)
          (xy -4.376800 -0.533600)
          (xy -4.387300 -0.541000)
          (xy -4.500300 -0.557900)
          (xy -4.711100 -0.569600)
          (xy -4.986700 -0.574000)
          (xy -5.099100 -0.573400)
          (xy -5.353500 -0.567100)
          (xy -5.530300 -0.555400)
          (xy -5.596600 -0.540000)
          (xy -6.746100 -0.540000)
          (xy -6.944900 -1.009000)
          (xy -7.142000 -1.475700)
          (xy -7.309400 -1.874500)
          (xy -7.440700 -2.189600)
          (xy -7.528900 -2.404800)
          (xy -7.567500 -2.504100)
          (xy -7.581800 -2.559100)
          (xy -7.569400 -2.612500)
          (xy -7.493500 -2.641100)
          (xy -7.327600 -2.652700)
          (xy -7.044800 -2.654800)
          (xy -6.474300 -2.654800)
          (xy -6.263900 -2.134600)
        )
        (stroke (width 0.01) (type default))
        (fill (type outline))
      )
      (polyline
        (pts
          (xy 0.000000 -0.681600)
          (xy 0.000000 1.291500)
          (xy 0.753400 1.291500)
          (xy 1.506800 1.291500)
          (xy 1.506800 1.829700)
          (xy 1.506800 2.367800)
          (xy -0.574000 2.367800)
          (xy -2.654800 2.367800)
          (xy -2.654800 1.829700)
          (xy -2.654800 1.291500)
          (xy -1.901400 1.291500)
          (xy -1.148000 1.291500)
          (xy -1.148000 -0.681600)
          (xy -1.148000 -2.654800)
          (xy -0.574000 -2.654800)
          (xy 0.000000 -2.654800)
          (xy 0.000000 -0.681600)
        )
        (stroke (width 0.01) (type default))
        (fill (type outline))
      )
      (polyline
        (pts
          (xy 6.098900 -2.152500)
          (xy 6.098900 -1.650300)
          (xy 4.771500 -1.650300)
          (xy 3.444100 -1.650300)
          (xy 3.444100 -1.148000)
          (xy 3.444100 -0.645800)
          (xy 4.592100 -0.645800)
          (xy 5.740200 -0.645800)
          (xy 5.740200 -0.143500)
          (xy 5.740200 0.358800)
          (xy 4.592100 0.358800)
          (xy 3.444100 0.358800)
          (xy 3.444100 0.861000)
          (xy 3.444100 1.363300)
          (xy 4.771500 1.363300)
          (xy 6.098900 1.363300)
          (xy 6.098900 1.865500)
          (xy 6.098900 2.367800)
          (xy 4.197500 2.367800)
          (xy 2.296100 2.367800)
          (xy 2.296100 -0.143500)
          (xy 2.296100 -2.654800)
          (xy 4.197500 -2.654800)
          (xy 6.098900 -2.654800)
          (xy 6.098900 -2.152500)
        )
        (stroke (width 0.01) (type default))
        (fill (type outline))
      )
      (polyline
        (pts
          (xy 8.395000 -1.865500)
          (xy 8.395000 -1.076300)
          (xy 8.813100 -1.076300)
          (xy 9.231300 -1.076300)
          (xy 9.761500 -1.865500)
          (xy 10.291600 -2.654800)
          (xy 10.962500 -2.654800)
          (xy 11.633400 -2.654800)
          (xy 11.025900 -1.773300)
          (xy 10.418400 -0.891800)
          (xy 10.694600 -0.732800)
          (xy 10.993700 -0.507900)
          (xy 11.263600 -0.145700)
          (xy 11.423700 0.306500)
          (xy 11.465300 0.645400)
          (xy 11.417700 1.119100)
          (xy 11.246500 1.541800)
          (xy 10.959800 1.895900)
          (xy 10.565500 2.164000)
          (xy 10.529700 2.181400)
          (xy 10.408000 2.234100)
          (xy 10.279400 2.273600)
          (xy 10.121100 2.302200)
          (xy 9.910400 2.322400)
          (xy 9.624400 2.336500)
          (xy 9.240500 2.347000)
          (xy 8.735800 2.356100)
          (xy 7.246900 2.380300)
          (xy 7.246900 -0.071700)
          (xy 8.395000 -0.071700)
          (xy 8.395000 0.645800)
          (xy 8.395000 1.363300)
          (xy 8.879300 1.360200)
          (xy 9.317900 1.343100)
          (xy 9.704000 1.287300)
          (xy 9.982100 1.188600)
          (xy 10.168700 1.043100)
          (xy 10.251700 0.919600)
          (xy 10.320200 0.653800)
          (xy 10.276200 0.386500)
          (xy 10.130300 0.157800)
          (xy 9.893200 0.007800)
          (xy 9.850400 -0.004500)
          (xy 9.638400 -0.038800)
          (xy 9.348400 -0.062700)
          (xy 9.030000 -0.071700)
          (xy 8.395000 -0.071700)
          (xy 7.246900 -0.071700)
          (xy 7.246900 -0.137200)
          (xy 7.246900 -2.654800)
          (xy 7.820900 -2.654800)
          (xy 8.395000 -2.654800)
          (xy 8.395000 -1.865500)
        )
        (stroke (width 0.01) (type default))
        (fill (type outline))
      )
      (polyline
        (pts
          (xy 16.144100 -2.152500)
          (xy 16.144100 -1.650300)
          (xy 14.960200 -1.650300)
          (xy 13.776300 -1.650300)
          (xy 13.776300 0.358800)
          (xy 13.776300 2.367800)
          (xy 13.202300 2.367800)
          (xy 12.628300 2.367800)
          (xy 12.628300 -0.143500)
          (xy 12.628300 -2.654800)
          (xy 14.386200 -2.654800)
          (xy 16.144100 -2.654800)
          (xy 16.144100 -2.152500)
        )
        (stroke (width 0.01) (type default))
        (fill (type outline))
      )
      (polyline
        (pts
          (xy -10.632800 3.878500)
          (xy -10.377400 3.982600)
          (xy -10.229400 4.106300)
          (xy -10.107200 4.293000)
          (xy -10.028300 4.550900)
          (xy -9.986000 4.903500)
          (xy -9.973400 5.374300)
          (xy -9.973400 6.170600)
          (xy -10.260400 6.170600)
          (xy -10.547400 6.170600)
          (xy -10.547400 5.381400)
          (xy -10.549900 5.047400)
          (xy -10.560900 4.798300)
          (xy -10.585000 4.635400)
          (xy -10.626800 4.528700)
          (xy -10.690900 4.448600)
          (xy -10.876400 4.327700)
          (xy -11.087000 4.333000)
          (xy -11.304100 4.481200)
          (xy -11.322600 4.500000)
          (xy -11.395500 4.588000)
          (xy -11.441600 4.691400)
          (xy -11.467100 4.842100)
          (xy -11.477900 5.072300)
          (xy -11.480200 5.414000)
          (xy -11.480200 6.170600)
          (xy -11.731300 6.170600)
          (xy -11.982400 6.170600)
          (xy -11.982400 5.283400)
          (xy -11.977500 4.919500)
          (xy -11.952300 4.571700)
          (xy -11.896700 4.321200)
          (xy -11.801100 4.142800)
          (xy -11.655500 4.011100)
          (xy -11.450400 3.900600)
          (xy -11.267000 3.847800)
          (xy -10.952400 3.831800)
          (xy -10.632800 3.878500)
        )
        (stroke (width 0.01) (type default))
        (fill (type outline))
      )
      (polyline
        (pts
          (xy 7.638100 3.904400)
          (xy 7.844900 4.028800)
          (xy 8.000700 4.254000)
          (xy 8.050600 4.570600)
          (xy 8.036100 4.713100)
          (xy 7.925300 4.940000)
          (xy 7.695900 5.121700)
          (xy 7.336300 5.269500)
          (xy 7.104400 5.350400)
          (xy 6.919900 5.446400)
          (xy 6.856200 5.542100)
          (xy 6.901100 5.648000)
          (xy 6.993700 5.715000)
          (xy 7.202300 5.728000)
          (xy 7.501000 5.635900)
          (xy 7.546200 5.617200)
          (xy 7.693500 5.570000)
          (xy 7.780700 5.596500)
          (xy 7.865900 5.708000)
          (xy 7.909000 5.787000)
          (xy 7.920300 5.944300)
          (xy 7.800600 6.068800)
          (xy 7.544100 6.169000)
          (xy 7.253000 6.230000)
          (xy 6.979200 6.223000)
          (xy 6.711600 6.131300)
          (xy 6.551900 6.028100)
          (xy 6.375300 5.785200)
          (xy 6.314200 5.465700)
          (xy 6.333600 5.303900)
          (xy 6.441100 5.107500)
          (xy 6.657800 4.946900)
          (xy 7.000900 4.805600)
          (xy 7.269700 4.701200)
          (xy 7.466000 4.581800)
          (xy 7.529300 4.470200)
          (xy 7.454700 4.370700)
          (xy 7.302900 4.316000)
          (xy 7.043600 4.329800)
          (xy 6.769900 4.443300)
          (xy 6.544100 4.581100)
          (xy 6.379300 4.405700)
          (xy 6.283800 4.293900)
          (xy 6.260700 4.207000)
          (xy 6.325600 4.119400)
          (xy 6.348600 4.099000)
          (xy 6.508900 3.999700)
          (xy 6.716200 3.908800)
          (xy 6.957500 3.838700)
          (xy 7.303600 3.815900)
          (xy 7.638100 3.904400)
        )
        (stroke (width 0.01) (type default))
        (fill (type outline))
      )
      (polyline
        (pts
          (xy 20.784700 3.871300)
          (xy 21.166800 4.045500)
          (xy 21.390500 4.241600)
          (xy 21.580000 4.551700)
          (xy 21.664000 4.901500)
          (xy 21.645000 5.261300)
          (xy 21.525400 5.601600)
          (xy 21.307700 5.892900)
          (xy 20.994400 6.105700)
          (xy 20.892800 6.147300)
          (xy 20.482900 6.229100)
          (xy 20.086500 6.180700)
          (xy 19.729400 6.008400)
          (xy 19.437400 5.718600)
          (xy 19.433300 5.713000)
          (xy 19.305700 5.504800)
          (xy 19.244900 5.298500)
          (xy 19.229400 5.022400)
          (xy 19.232000 4.964800)
          (xy 19.806000 4.964800)
          (xy 19.837400 5.247900)
          (xy 19.975200 5.501300)
          (xy 20.165400 5.648900)
          (xy 20.429700 5.714400)
          (xy 20.697200 5.665300)
          (xy 20.923200 5.501300)
          (xy 21.000300 5.391500)
          (xy 21.092100 5.108600)
          (xy 21.070000 4.815400)
          (xy 20.933500 4.560100)
          (xy 20.725100 4.405000)
          (xy 20.452800 4.332900)
          (xy 20.187800 4.373500)
          (xy 20.031700 4.472900)
          (xy 19.873300 4.692900)
          (xy 19.806000 4.964800)
          (xy 19.232000 4.964800)
          (xy 19.237000 4.855000)
          (xy 19.330900 4.484200)
          (xy 19.540300 4.191400)
          (xy 19.875800 3.959300)
          (xy 19.982800 3.910600)
          (xy 20.378900 3.825600)
          (xy 20.784700 3.871300)
        )
        (stroke (width 0.01) (type default))
        (fill (type outline))
      )
      (polyline
        (pts
          (xy -8.092600 4.532400)
          (xy -8.072000 5.190200)
          (xy -7.570700 4.532400)
          (xy -7.518300 4.463800)
          (xy -7.311100 4.199400)
          (xy -7.161100 4.027900)
          (xy -7.046400 3.929600)
          (xy -6.945100 3.885100)
          (xy -6.835200 3.874600)
          (xy -6.601100 3.874600)
          (xy -6.601100 5.022600)
          (xy -6.601100 6.170600)
          (xy -6.849500 6.170600)
          (xy -7.098000 6.170600)
          (xy -7.118600 5.506900)
          (xy -7.139200 4.843200)
          (xy -7.641500 5.503400)
          (xy -7.762100 5.661200)
          (xy -7.947000 5.894600)
          (xy -8.081600 6.042100)
          (xy -8.188800 6.123500)
          (xy -8.291500 6.158600)
          (xy -8.412800 6.167100)
          (xy -8.681900 6.170600)
          (xy -8.681900 5.022600)
          (xy -8.681900 3.874600)
          (xy -8.397600 3.874600)
          (xy -8.113300 3.874600)
          (xy -8.092600 4.532400)
        )
        (stroke (width 0.01) (type default))
        (fill (type outline))
      )
      (polyline
        (pts
          (xy -4.663800 5.022600)
          (xy -4.663800 6.170600)
          (xy -4.914900 6.170600)
          (xy -5.166100 6.170600)
          (xy -5.166100 5.022600)
          (xy -5.166100 3.874600)
          (xy -4.914900 3.874600)
          (xy -4.663800 3.874600)
          (xy -4.663800 5.022600)
        )
        (stroke (width 0.01) (type default))
        (fill (type outline))
      )
      (polyline
        (pts
          (xy -1.585900 4.968800)
          (xy -1.483200 5.226700)
          (xy -1.349800 5.566800)
          (xy -1.243400 5.844100)
          (xy -1.173100 6.035300)
          (xy -1.147800 6.116800)
          (xy -1.153500 6.127600)
          (xy -1.249200 6.158300)
          (xy -1.425500 6.170600)
          (xy -1.703000 6.170600)
          (xy -1.973600 5.411200)
          (xy -2.047900 5.208200)
          (xy -2.167300 4.916500)
          (xy -2.252600 4.762700)
          (xy -2.303600 4.747500)
          (xy -2.326600 4.794200)
          (xy -2.395800 4.962600)
          (xy -2.490200 5.211900)
          (xy -2.596600 5.506900)
          (xy -2.830100 6.170600)
          (xy -3.144700 6.170600)
          (xy -3.259200 6.167600)
          (xy -3.399600 6.140400)
          (xy -3.421000 6.080900)
          (xy -3.420300 6.079200)
          (xy -3.377600 5.975900)
          (xy -3.293300 5.769900)
          (xy -3.179400 5.490200)
          (xy -3.047600 5.166100)
          (xy -2.913600 4.836800)
          (xy -2.784600 4.520300)
          (xy -2.680400 4.265400)
          (xy -2.615500 4.107800)
          (xy -2.557400 3.988700)
          (xy -2.451900 3.896100)
          (xy -2.271500 3.874600)
          (xy -2.024400 3.874600)
          (xy -1.585900 4.968800)
        )
        (stroke (width 0.01) (type default))
        (fill (type outline))
      )
      (polyline
        (pts
          (xy 1.865600 4.125700)
          (xy 1.865600 4.376800)
          (xy 1.255700 4.376800)
          (xy 0.645800 4.376800)
          (xy 0.645800 4.592100)
          (xy 0.645800 4.807300)
          (xy 1.188500 4.807300)
          (xy 1.731200 4.807300)
          (xy 1.708700 5.040500)
          (xy 1.686200 5.273700)
          (xy 1.166000 5.294800)
          (xy 0.645800 5.315900)
          (xy 0.645800 5.528000)
          (xy 0.645800 5.740100)
          (xy 1.255700 5.740100)
          (xy 1.865600 5.740100)
          (xy 1.865600 5.955400)
          (xy 1.865600 6.170600)
          (xy 0.968700 6.170600)
          (xy 0.071800 6.170600)
          (xy 0.071800 5.022600)
          (xy 0.071800 3.874600)
          (xy 0.968700 3.874600)
          (xy 1.865600 3.874600)
          (xy 1.865600 4.125700)
        )
        (stroke (width 0.01) (type default))
        (fill (type outline))
      )
      (polyline
        (pts
          (xy 3.659400 4.233300)
          (xy 3.661500 4.396700)
          (xy 3.681500 4.529700)
          (xy 3.739800 4.582200)
          (xy 3.856700 4.590800)
          (xy 3.874200 4.590400)
          (xy 4.006600 4.555400)
          (xy 4.133500 4.445100)
          (xy 4.287700 4.232000)
          (xy 4.424500 4.033500)
          (xy 4.533600 3.925700)
          (xy 4.658400 3.882500)
          (xy 4.844500 3.874600)
          (xy 5.167600 3.874600)
          (xy 4.901000 4.276100)
          (xy 4.899600 4.278300)
          (xy 4.761600 4.493900)
          (xy 4.697900 4.623500)
          (xy 4.699500 4.697400)
          (xy 4.756800 4.746000)
          (xy 4.762200 4.749100)
          (xy 4.943900 4.929700)
          (xy 5.053200 5.192400)
          (xy 5.078500 5.490700)
          (xy 5.008700 5.778000)
          (xy 4.947700 5.885400)
          (xy 4.803200 6.021800)
          (xy 4.586000 6.109600)
          (xy 4.273400 6.156600)
          (xy 3.842300 6.170600)
          (xy 3.157100 6.170600)
          (xy 3.157100 5.094400)
          (xy 3.659400 5.094400)
          (xy 3.659400 5.384900)
          (xy 3.659400 5.675500)
          (xy 4.071900 5.654000)
          (xy 4.243400 5.642600)
          (xy 4.402900 5.615400)
          (xy 4.479100 5.562000)
          (xy 4.508000 5.467100)
          (xy 4.505000 5.348900)
          (xy 4.445400 5.198000)
          (xy 4.429400 5.182200)
          (xy 4.269400 5.117700)
          (xy 4.009300 5.094400)
          (xy 3.659400 5.094400)
          (xy 3.157100 5.094400)
          (xy 3.157100 5.022600)
          (xy 3.157100 3.874600)
          (xy 3.408200 3.874600)
          (xy 3.659400 3.874600)
          (xy 3.659400 4.233300)
        )
        (stroke (width 0.01) (type default))
        (fill (type outline))
      )
      (polyline
        (pts
          (xy 9.901700 5.022600)
          (xy 9.901700 6.170600)
          (xy 9.614700 6.170600)
          (xy 9.327700 6.170600)
          (xy 9.327700 5.022600)
          (xy 9.327700 3.874600)
          (xy 9.614700 3.874600)
          (xy 9.901700 3.874600)
          (xy 9.901700 5.022600)
        )
        (stroke (width 0.01) (type default))
        (fill (type outline))
      )
      (polyline
        (pts
          (xy 12.413000 4.771500)
          (xy 12.413000 5.668400)
          (xy 12.735900 5.668400)
          (xy 12.879600 5.669900)
          (xy 13.005200 5.692100)
          (xy 13.051900 5.765200)
          (xy 13.058800 5.919500)
          (xy 13.058800 6.170600)
          (xy 12.085600 6.170600)
          (xy 11.112400 6.170600)
          (xy 11.134900 5.937400)
          (xy 11.146800 5.841100)
          (xy 11.188100 5.745500)
          (xy 11.291700 5.702100)
          (xy 11.498200 5.682400)
          (xy 11.839000 5.660500)
          (xy 11.839000 4.767500)
          (xy 11.839000 3.874600)
          (xy 12.126000 3.874600)
          (xy 12.413000 3.874600)
          (xy 12.413000 4.771500)
        )
        (stroke (width 0.01) (type default))
        (fill (type outline))
      )
      (polyline
        (pts
          (xy 15.498300 4.341600)
          (xy 15.498300 4.350400)
          (xy 15.503700 4.572800)
          (xy 15.529400 4.747200)
          (xy 15.590500 4.915400)
          (xy 15.701900 5.119100)
          (xy 15.878700 5.400000)
          (xy 15.978200 5.554700)
          (xy 16.134400 5.798600)
          (xy 16.252800 5.984500)
          (xy 16.313500 6.080900)
          (xy 16.323200 6.121300)
          (xy 16.251500 6.159400)
          (xy 16.056400 6.170600)
          (xy 15.959800 6.169600)
          (xy 15.826500 6.151600)
          (xy 15.725900 6.089900)
          (xy 15.623300 5.957600)
          (xy 15.483800 5.727900)
          (xy 15.222600 5.285100)
          (xy 15.019700 5.626700)
          (xy 14.972000 5.707000)
          (xy 14.829000 5.940800)
          (xy 14.724900 6.080100)
          (xy 14.631900 6.147600)
          (xy 14.522400 6.165900)
          (xy 14.368700 6.157600)
          (xy 14.069300 6.134800)
          (xy 14.496800 5.471200)
          (xy 14.590500 5.325300)
          (xy 14.747800 5.069900)
          (xy 14.846000 4.880700)
          (xy 14.898800 4.720700)
          (xy 14.920300 4.553100)
          (xy 14.924300 4.341100)
          (xy 14.924300 3.874600)
          (xy 15.211300 3.874600)
          (xy 15.498300 3.874600)
          (xy 15.498300 4.341600)
        )
        (stroke (width 0.01) (type default))
        (fill (type outline))
      )
      (polyline
        (pts
          (xy 23.247500 4.305100)
          (xy 23.247500 4.735600)
          (xy 23.821500 4.735600)
          (xy 24.395500 4.735600)
          (xy 24.395500 4.986700)
          (xy 24.395500 5.237900)
          (xy 23.821500 5.237900)
          (xy 23.247500 5.237900)
          (xy 23.247500 5.450300)
          (xy 23.247500 5.662800)
          (xy 23.875300 5.683500)
          (xy 24.503100 5.704200)
          (xy 24.525600 5.937400)
          (xy 24.548100 6.170600)
          (xy 23.646700 6.170600)
          (xy 22.745200 6.170600)
          (xy 22.745200 5.022600)
          (xy 22.745200 3.874600)
          (xy 22.996400 3.874600)
          (xy 23.247500 3.874600)
          (xy 23.247500 4.305100)
        )
        (stroke (width 0.01) (type default))
        (fill (type outline))
      )
      (polyline
        (pts
          (xy -18.860400 5.327900)
          (xy -18.798800 5.381400)
          (xy -18.823800 5.422200)
          (xy -18.938100 5.453100)
          (xy -19.020500 5.441600)
          (xy -19.121700 5.381400)
          (xy -19.104500 5.332400)
          (xy -18.982400 5.309600)
          (xy -18.860400 5.327900)
        )
        (stroke (width 0.01) (type default))
        (fill (type outline))
      )
    )
  )
)
